{
  "newspapers": [
    {
      "title": "阿里千问发布 Qwen3.5 模型系列多个模型【AI 早报 2026-02-25】",
      "publish_date": "2026-02-25",
      "bv_id": "BV1hHfxBgEhb",
      "organize_time": "2026-02-25 09:30:48",
      "news_count": 28,
      "overview": "1. 🚀 阿里千问发布Qwen3.5模型系列\n2. 🔧 Anthropic推出Claude Code Remote Control功能\n3. 🔧 Anthropic发布Claude Cowork重大更新\n4. 🚀 OpenAI全面开放GPT-5.3-Codex模型API\n5. 🚀 Inception发布Mercury 2扩散架构推理模型\n6. 🚀 Liquid AI发布LFM2-24B-A2B模型\n7. 🚀 Reve推出4K图像生成模型Reve V1.5\n8. 🔧 Cursor推出新版Cloud Agents\n9. 🔧 Cognition发布Devin 2.2版本\n10. 🔧 OpenAI扩展Responses API支持多格式输入\n11. 🔧 OpenRouter推出Effective Pricing参数\n12. 🚀 MiniMax推出MaxClaw模型\n13. 📈 TRAE发布国产模型选择建议\n14. 🚀 Google Labs上线AI音乐创作平台ProducerAI\n15. 🔧 Google升级Opal推出Agent Step\n16. 🔧 Notion在3.3版本推出Custom Agents\n17. 🔧 DeepSeek应用上线界面与功能优化\n18. 🔧 Perplexity推出OpenAI Realtime驱动语音模式\n19. 🔧 OpenClaw发布2026.2.23版本\n20. 📈 Meta与AMD签署AI基础设施战略合作协议\n21. 📈 xAI与美军签约部署Grok模型\n22. 🔧 Microsoft主权云支持本地断网运行AI模型\n23. 📈 英伟达与联发科合作开发Arm架构PC芯片\n24. 🚀 SambaNova发布SN50 AI芯片并与Intel达成合作\n25. 📈 MatX完成5亿美元B轮融资\n26. 📈 Canva收购Cavalry与Mango AI\n27. 🔧 Anthropic提出人格选择模型PSM解释AI拟人化行为\n28. 📈 Anthropic发布负责任扩展政策RSP 3.0",
      "is_voice_generated": false
    },
    {
      "title": "OpenAI 上线 gpt-realtime-1.5 语音模型【AI 早报 2026-02-24】",
      "publish_date": "2026-02-24",
      "bv_id": "BV1LHfrBxEUR",
      "organize_time": "2026-02-24 08:59:57",
      "news_count": 11,
      "overview": "1. 🚀 OpenAI 上线 gpt-realtime-1.5 语音模型\n2. 🔧 Guide Labs 推出可解释因果扩散语言模型 Steerling-8B\n3. 🔧 OpenAI Responses API 新增 WebSocket 模式\n4. 📈 Google 回应封禁滥用 Antigravity 的 Gemini 订阅用户\n5. 📈 Anthropic 推广 COBOL 代码自动化迁移方案\n6. 🚀 Gemini 上线视频模板功能\n7. 🔧 openclaw 发布 2026.2.22 版本\n8. 📈 Anthropic 指控三家中国 AI 实验室进行工业级模型蒸馏攻击\n9. 📈 五角大楼考虑终止与 Anthropic 的 AI 军事合同\n10. 📈 OpenAI 联手四大咨询巨头组建 Frontier 企业 AI 联盟\n11. 📈 月之暗面 Kimi 近20天收入超2025全年",
      "is_voice_generated": false
    },
    {
      "title": "智谱为 GLM Coding Plan 用户致歉并提出补偿方案【AI 早报 2026-02-22】",
      "publish_date": "2026-02-22",
      "bv_id": "BV1gLZfB8Ewq",
      "organize_time": "2026-02-22 08:44:07",
      "news_count": 11,
      "overview": "1. 📈 智谱为GLM Coding Plan规则变动致歉并推补偿方案\n2. 🚀 阿里云千问发布Qwen Coding Plan编程助手\n3. 🔧 Claude Code新增内置Git Worktree支持\n4. 🔧 OpenAI扩展Batch API支持GPT图像模型\n5. 📈 微软确认Copilot默认共享Bing与Edge数据\n6. 🔧 OpenClaw发布v2026.2.21版本更新\n7. 🚀 Taalas发布HC1固化模型推理芯片\n8. 📈 Andrej Karpathy评析Claw技术及安全隐患\n9. 📈 OpenAI曾考虑就加拿大枪手聊天内容报警\n10. 📈 OpenAI文件显示五年收入预期上调\n11. 🚀 Anthropic拟推Claude CLI命令行工具",
      "is_voice_generated": false
    },
    {
      "title": "Anthropic 发布 Claude Code Security【AI 早报 2026-02-21】",
      "publish_date": "2026-02-21",
      "bv_id": "BV1XAf7BnEy6",
      "organize_time": "2026-02-21 09:13:37",
      "news_count": 14,
      "overview": "1. 🚀 Anthropic 发布 Claude Code Security 安全工具\n2. 🔧 Claude Code 桌面版迎来重大功能更新\n3. 📈 Anthropic 员工回应 Claude Agent SDK 与 OAuth 争议\n4. 🔧 GPT-5.3-Codex-Spark 实现超1200 tokens/s高速推理\n5. 🔧 Google CLI 开放 Gemini 3.1 Pro 访问权限\n6. 🔧 Ollama 新版原生集成 Cline 与 Pi 工具\n7. 📈 GGML 团队正式加入 Hugging Face 开源生态\n8. 📈 智谱 MiniMax 市值连续超越快手与京东\n9. 📈 Karpathy 预言传统 App Store 模式将过时\n10. 🚀 OpenAI 或将推出 ChatGPT Pro Lite 订阅服务\n11. 🚀 Google DeepMind 预告将发布新一代 Gemma 模型\n12. 🚀 传 OpenAI 正在研发首款AI摄像头智能音箱\n13. 📈 OpenAI 获软银领衔百亿美元战略注资\n14. 🔧 OpenAI 扩展 ChatGPT Thinking 模式上下文窗口",
      "is_voice_generated": false
    },
    {
      "title": "Google DeepMind 发布 Lyria 3 音乐生成模型并已上线 Gemini【AI 早报 2026-02-19】",
      "publish_date": "2026-02-19",
      "bv_id": "BV1WfZ8BqEu6",
      "organize_time": "2026-02-19 09:39:25",
      "news_count": 12,
      "overview": "1. 🚀 Google DeepMind 发布 Lyria 3 音乐生成模型并集成至 Gemini\n2. 🔧 xAI 推出 Grok 4.20 Heavy 支持16-Agent协作模式\n3. 🚀 Prime Intellect 开源106B参数 MoE 模型 INTELLECT-3.1\n4. 🚀 印度AI企业 Sarvam 发布 Sarvam-30B 与 105B 大模型\n5. 🔧 OpenAI 开源 Codex App Server 支持 ChatGPT 登录\n6. 🚀 Figma 推出 Claude Code to Figma 功能\n7. 🔧 OpenAI 发布智能合约安全基准 EVMbench\n8. 🔧 Gemini CLI 更新至 v0.29.0 实现每周迭代发布\n9. 📈 谷歌、OpenAI 与微软宣布在印度扩大AI布局\n10. 📈 Perplexity 移除搜索平台广告以优化用户体验\n11. 📈 World Labs 完成融资并与 Autodesk 达成战略合作\n12. 🔧 智谱AI 发布 GLM-5 技术报告展示多模态能力突破",
      "is_voice_generated": false
    },
    {
      "title": "Anthropic 发布 Claude Sonnet 4.6；xAI 上线 Grok 4.20 测试版【AI 早报 2026-02-18】",
      "publish_date": "2026-02-18",
      "bv_id": "BV1uAZDBiEKF",
      "organize_time": "2026-02-18 09:08:50",
      "news_count": 12,
      "overview": "1. 🚀 Anthropic 发布 Claude Sonnet 4.6，增强动态网页搜索能力\n2. 🚀 xAI 上线 Grok 4.20 测试版，马斯克确认发布\n3. 🔧 NotebookLM 新增幻灯片Prompt修订与PPTX导出功能\n4. 🔧 蚂蚁集团开源 Ming-omni-tts 音频生成模型\n5. 🚀 Cohere Labs 发布 Tiny Aya 多语言轻量模型\n6. 🔧 字节跳动开源 BitDance 多模态模型\n7. 🔧 Cursor 2.5 版本更新，推出插件市场\n8. 🔧 OpenAI 修复 GPT-5.3-Codex 请求重定向漏洞\n9. 📈 Cerebras 下调部分免费层级推理额度\n10. 🔧 Intelligent Internet 开源多Agent协作系统 Common Ground Core\n11. 📈 Nerve 加入 OpenAI，参与构建 ChatGPT 搜索功能\n12. 📈 传 Moonshot AI 完成7亿美元融资",
      "is_voice_generated": false
    },
    {
      "title": "新年礼物：阿里千问开源 Qwen3.5-397B-A17B 模型【AI 早报 2026-02-17】",
      "publish_date": "2026-02-17",
      "bv_id": "BV1uXZ3BfE6k",
      "organize_time": "2026-02-17 08:53:19",
      "news_count": 8,
      "overview": "1. 🚀 阿里千问开源Qwen3.5-397B-A17B大模型\n2. 🚀 蚂蚁百灵发布Ling-2.5-1T大模型\n3. 🚀 Manus推出Manus Agents智能体平台\n4. 🔧 Kilo上线优化版Grok Code Fast 1\n5. 📈 智谱启动合伙人计划应对GLM-5算力瓶颈\n6. 📈 Flapping Airplanes获1.8亿美元融资\n7. 📈 Ricursive Intelligence完成3.35亿美元融资\n8. 📈 传Kimi K3计划于3月发布",
      "is_voice_generated": false
    },
    {
      "title": "字节跳动发布豆包大模型2.0系列【AI 早报 2026-02-15】",
      "publish_date": "2026-02-15",
      "bv_id": "BV1feZpB6EJU",
      "organize_time": "2026-02-15 09:19:14",
      "news_count": 10,
      "overview": "1. 🚀 字节跳动发布豆包大模型2.0系列\n2. 🔧 小红书开源图像编辑模型FireRed-Image-Edit-1.0\n3. 🚀 通义实验室推出CoPaw智能体工作台\n4. 🔧 ChatGPT新增Lockdown Mode与高风险标签\n5. 🚀 千问APP扩展“超级免单卡”使用范围\n6. 📈 中国首部AIGC动画电影定档2月28日\n7. 📈 字节跳动AI模型引发版权与肖像争议\n8. 🔧 OpenAI实现Codex驱动零代码开发\n9. 🔧 OpenAI内部模型生成研究级数学解法\n10. 📈 Anthropic或将上线新模型",
      "is_voice_generated": false
    },
    {
      "title": "智谱发布 GLM-5 模型；DeepSeek 上线新模型；MiniMax 上线 M2.5 模型【AI 早报 2026-02-12】",
      "publish_date": "2026-02-12",
      "bv_id": "BV1sscazJE3j",
      "organize_time": "2026-02-12 09:29:22",
      "news_count": 26,
      "overview": "1. 🚀 智谱AI发布并开源GLM-5模型\n2. 🔧 DeepSeek上线1M上下文窗口新模型\n3. 🚀 MiniMax上线MiniMax M2.5模型\n4. 🔧 OpenAI更新GPT-5.2 Instant模型\n5. 🚀 蚂蚁集团发布全模态大模型Ming-flash-omni 2.0\n6. 🚀 科大讯飞推出讯飞星火X2大模型\n7. 🚀 OpenBMB发布MiniCPM-SALA百万上下文模型\n8. 🚀 BOSS直聘推出Nanbeige4.1-3B模型\n9. 🚀 Soul推出SoulX-Singer歌声合成模型\n10. 🚀 智谱正式发布AI编程工具Z Code\n11. 📈 智谱AI上调GLM Coding Plan价格\n12. 🔧 Google AI Studio更新，新增omnibar功能\n13. 📈 Factory与JetBrains合作集成Droid Agent\n14. 🔧 Anthropic开放Claude免费版四项功能\n15. 🚀 智谱发布GLM in Excel插件\n16. 🚀 美团LongCat上线“深度研究”智能体\n17. 🚀 Stitch推出Ideate Agent\n18. 📈 Mistral AI投资12亿欧元瑞典数据中心\n19. 📈 OpenAI解散任务对齐团队\n20. 📈 xAI进行重组与人事变动\n21. 🚀 Prime Intellect推出全栈agentic训练平台\n22. 🔧 Gemini Deep Think攻克科研级难题\n23. 🔧 Karpathy开源243行纯Python GPT实现\n24. 📈 Anthropic发布Claude Opus 4.6破坏风险报告\n25. 🔧 OpenAI开放Windows版Codex Alpha候补\n26. 📈 传谷歌拟推出Gemini 3.1 Pro Preview",
      "is_voice_generated": false
    },
    {
      "title": "OpenAI正式启动ChatGPT广告测试【AI 早报 2026-02-10】",
      "publish_date": "2026-02-10",
      "bv_id": "BV1PtFUzbELw",
      "organize_time": "2026-02-10 09:10:09",
      "news_count": 10,
      "overview": "1. 📈 OpenAI正式启动ChatGPT广告测试\n2. 🔧 Sam Altman宣布Codex将保持免费用户可用\n3. 🚀 OpenRouter上线 stealth 模型 Aurora Alpha\n4. 🔧 Cursor上线编程模型Composer 1.5\n5. 🚀 OpenAI逐步向第三方开放GPT-5.3-Codex\n6. 🚀 美团AI编程工具CatPaw全量开放\n7. 🔧 Hugging Face发布Transformers.js v4预览版\n8. 🚀 魔搭ModelScope推出OpenAPI\n9. 🔧 Sora上线Extensions续写功能\n10. 🔧 智谱GLM-5架构细节曝光，总参数或达700B",
      "is_voice_generated": false
    },
    {
      "title": "Qwen 3.5系列模型即将发布【AI 早报 2026-02-09】",
      "publish_date": "2026-02-09",
      "bv_id": "BV1sYcPzgEjR",
      "organize_time": "2026-02-09 09:09:39",
      "news_count": 5,
      "overview": "1. 🚀 Qwen 3.5系列模型即将发布\n2. 🔧 xAI上线Grok Imagine Image Pro模型API\n3. 🚀 CodeBuddy发布AI桌面工作台WorkBuddy\n4. 🔧 字节跳动即将推出Seedream 5.0预览版\n5. 📈 Meta AI官网测试新模型Avocado",
      "is_voice_generated": false
    },
    {
      "title": "天价AI？Anthropic 推出 Claude Opus 4.6 快速模式【AI 早报 2026-02-08】",
      "publish_date": "2026-02-08",
      "bv_id": "BV1U6FbzmEeJ",
      "organize_time": "2026-02-08 09:24:15",
      "news_count": 6,
      "overview": "1. 🚀 Anthropic推出Claude Opus 4.6快速模式\n2. 🔧 Augment Code上线Context Engine MCP\n3. 📈 OpenAI引入性能专家优化数据中心成本\n4. 📈 OpenAI推进AI模型本土化策略\n5. 🔧 千问Qwen等联合推出法律评测基准PLawBench\n6. 📈 苹果计划为CarPlay引入第三方AI语音助手",
      "is_voice_generated": false
    },
    {
      "title": "美团推出 LongCat-Flash-Lite，免费API可用；神秘模型上线 OpenRouter 与 Kilo Code【AI 早报 2026-02-07】",
      "publish_date": "2026-02-07",
      "bv_id": "BV1pnFHzEEmw",
      "organize_time": "2026-02-07 09:08:49",
      "news_count": 11,
      "overview": "1. 🚀 美团发布LongCat-Flash-Lite模型，提供免费API服务\n2. 🚀 字节跳动发布视频生成模型Seedance 2.0\n3. 🔧 OpenRouter与Kilo Code联合上线Pony Alpha神秘模型\n4. 🔧 Waymo发布自动驾驶仿真系统Waymo World Model\n5. 🚀 X开发者平台上线API按量计费并支持xAI联动\n6. 🔧 OpenAI开放Sora真人角色视频生成功能\n7. 🚀 Perplexity推出多模型聚合问答功能Model Council\n8. 📈 中科曙光启用超三万卡国产AI算力池\n9. 📈 OpenAI内部转向Agent开发模式\n10. 🚀 OpenAI将于2026年推出Dime智能耳机\n11. 🚀 面壁智能发布首款AI硬件松果派",
      "is_voice_generated": false
    },
    {
      "title": "Anthropic 发布 Claude Opus 4.6；OpenAI 发布 GPT-5.3-Codex【AI 早报 2026-02-06】",
      "publish_date": "2026-02-06",
      "bv_id": "BV1cYFqzxEWR",
      "organize_time": "2026-02-06 09:08:19",
      "news_count": 21,
      "overview": "1. 🚀 Anthropic 发布 Claude Opus 4.6 模型\n2. 🚀 OpenAI 发布 GPT-5.3-Codex 编程专用模型\n3. 🔧 Claude Code 推出实验性功能 Agent teams\n4. 🚀 OpenAI 推出企业 AI Agent 平台 Frontier\n5. 📈 OpenAI 启动 Trusted Access for Cyber 试点项目\n6. 🔧 GitHub 升级 Copilot 并简化模型访问\n7. 🔧 Kiro CLI 引入 Agent Client Protocol 支持\n8. 📈 讯飞星辰 MaaS 平台推出模型限免优惠\n9. 🔧 Google 推出原生自适应无障碍框架\n10. 🚀 Figma 推出位图 AI 矢量化工具 Vectorize\n11. 🚀 魔搭开源 Singularity Cinema 视频生成器\n12. 📈 生数科技完成超6亿元A+轮融资\n13. 🚀 Fundamental 完成融资并推出表格模型\n14. 📈 阿里千问大模型成为冬奥首个官方大模型\n15. 🔧 OpenAI 揭晓 Codex 核心架构细节\n16. 🔧 Cursor 发布多智能体编程研究框架\n17. 🔧 Anthropic 揭示基础设施配置影响 Agent 评估\n18. 🚀 AI2 发布 OpenScholar 攻克学术“幻觉”问题\n19. 📈 OpenAI 与 Ginkgo 合作推出 AI 实验室降低合成成本40%\n20. 🔧 ChatGPT 安卓版测试看广告加额度功能\n21. 📈 Gemini 3 Pro GA 或已在 Arena 测试",
      "is_voice_generated": false
    },
    {
      "title": "OpenAI 发布 Codex App；SpaceX 收购 xAI【AI 早报 2026-02-03】",
      "publish_date": "2026-02-03",
      "bv_id": "BV14ZFGzwENR",
      "organize_time": "2026-02-03 09:00:27",
      "news_count": 12,
      "overview": "1. 🚀 OpenAI 发布 Codex App，推动代码生成工具普及\n2. 📈 SpaceX 正式收购 xAI，强化航天与AI融合布局\n3. 🔧 阶跃星辰开源 Step 3.5 Flash 模型，提升推理效率\n4. 🔧 智谱开源 GLM-OCR 模型，提升多模态文本识别能力\n5. 🚀 ElevenLabs 正式上线 TTS 模型 Eleven v3\n6. 🚀 xAI 发布 Grok Imagine 1.0 视频生成模型\n7. 🔧 优必选开源具身智能大模型 Thinker\n8. 📈 阿里启动千问App春节请客计划，投入30亿元\n9. 📈 Snowflake 与 OpenAI 达成2亿美元模型集成合作\n10. 🔧 谷歌 Game Arena 新增狼人杀与扑克基准测试\n11. 🔧 Google Gemini 研究揭示数学猜想新解法\n12. 📈 多家厂商公布二月新模型发布计划",
      "is_voice_generated": false
    },
    {
      "title": "阿里 Qoder 发布 Qwen-Coder-Qoder【AI 早报 2026-02-02】",
      "publish_date": "2026-02-02",
      "bv_id": "BV1iQ6hBJEDi",
      "organize_time": "2026-02-02 08:44:54",
      "news_count": 8,
      "overview": "1. 🚀 阿里Qoder发布Qwen-Coder-Qoder代码生成模型\n2. 🚀 CircleStone推出文生图模型Anima预览版\n3. 🔧 Claude Code团队分享内部使用技巧集\n4. 📈 Moltbook数据库发生数据泄露事件\n5. 📈 北京经开区颁发全国首个AI虚拟偶像身份认证\n6. 🔧 Kimi与南大联合发布SimpleSeg图像分割模型\n7. 🔧 字节研究团队发布ConceptMoE提升AI推理能力\n8. 📈 谷歌员工暗示三周内将发布重大更新",
      "is_voice_generated": false
    },
    {
      "title": "Gemini 正测试从 ChatGPT 导入对话的功能【AI 早报 2026-02-01】",
      "publish_date": "2026-02-01",
      "bv_id": "BV1xf6pBkEJm",
      "organize_time": "2026-02-01 09:14:29",
      "news_count": 8,
      "overview": "1. 🚀 Gemini 测试从 ChatGPT 导入对话历史功能\n2. 🔧 LM Studio 更新支持本地运行 Claude Code\n3. 🚀 V0 新增导入 GitHub 项目功能\n4. 📈 英伟达据称搁置与 OpenAI 的千亿协议\n5. 📈 苹果 AI 核心团队动荡，多人转投 Meta 与谷歌\n6. 📈 SpaceX 申请部署百万卫星轨道数据中心\n7. 🔧 nanochat 以百美元内成本训练出 GPT-2 级别模型\n8. 🚀 快手可灵 AI 预告 Kling 3.0 全能视频模型",
      "is_voice_generated": false
    },
    {
      "title": "谷歌DeepMind发布实验性AI世界模型Project Genie ；通义千问开源Qwen3-ASR模型【AI 早报 2026-01-30】",
      "publish_date": "2026-01-30",
      "bv_id": "BV1jq6eB4EWM",
      "organize_time": "2026-01-30 09:25:32",
      "news_count": 12,
      "overview": "1. 🚀 谷歌DeepMind发布实验性AI世界模型Project Genie\n2. 🚀 通义千问开源Qwen3-ASR语音识别模型\n3. 📈 OpenAI取消API验证并澄清用户发现所有权政策\n4. 🔧 Google DeepMind发布基因组预测模型AlphaGenome\n5. 🚀 Skywork AI开源SkyReels-V3多模态视频生成模型\n6. 🚀 OpenMOSS开源MOVA同步音视频生成模型\n7. 🔧 飞桨发布PaddleOCR-VL-1.5视觉语言OCR模型\n8. 🚀 MiniMax发布Music 2.5音乐生成模型\n9. 🚀 xAI正式发布Grok Imagine API图像生成接口\n10. 🔧 Cursor发布AI代码溯源标准Agent Trace\n11. 🔧 Gemini API上线Gemini 3系列模型与Computer Use工具\n12. 🚀 Gradio团队发布Daggr助力AI工作流开发",
      "is_voice_generated": false
    },
    {
      "title": "腾讯开源HunyuanImage 3.0图像编辑模型【AI 早报 2026-01-29】",
      "publish_date": "2026-01-29",
      "bv_id": "BV19vzdB5EuS",
      "organize_time": "2026-01-29 09:09:58",
      "news_count": 18,
      "overview": "1. 🚀 腾讯开源HunyuanImage 3.0图像编辑模型\n2. 🚀 美团开源LongCat-Flash-Lite模型\n3. 🚀 MiniMax发布M2-her多角色交互模型\n4. 🔧 Cerebras推出MiniMax-M2.1-REAP剪枝模型\n5. 🚀 昆仑万维发布AI音乐生成模型Mureka V8\n6. 🚀 Robbyant Team开源交互式世界模型LingBot-World\n7. 🚀 JetBrains推出ACP Agent Registry\n8. 🔧 Gemini CLI发布0.26.0版新增多项功能\n9. 🚀 月之暗面发布Kimi Agent SDK\n10. 🔧 LM Studio发布0.4.0版本\n11. 🚀 Google正式发布LiteRT框架\n12. 🚀 谷歌为Chrome上线Gemini侧边栏\n13. 🚀 微软在Excel推出Copilot Agent模式\n14. 🚀 谷歌为Gemini新增SAT与JEE备考功能\n15. 🚀 雅虎推出AI答案引擎Yahoo Scout\n16. 🚀 Genspark发布AI Workspace 2.0获3亿美元融资\n17. 🚀 Vidu AI发布Agent 1.0\n18. 📈 Arena品牌重塑聚焦AI技术前沿评估",
      "is_voice_generated": false
    },
    {
      "title": "月之暗面发布并开源 Kimi K2.5【AI 早报 2026-01-28】",
      "publish_date": "2026-01-28",
      "bv_id": "BV1rQ65BLEe2",
      "organize_time": "2026-01-28 09:39:20",
      "news_count": 15,
      "overview": "1. 🚀 月之暗面发布并开源 Kimi K2.5 模型\n2. 🚀 通义实验室发布图像生成模型 Z-Image 标准版\n3. 🚀 OpenAI推出免费AI科研协作平台Prism\n4. 🔧 Google调整AI订阅用户权益体系\n5. 🚀 DeepSeek开源DeepSeek-OCR 2模型\n6. 🚀 腾讯优图发布4B参数视觉语言模型\n7. 🚀 Jan团队发布Jan-v3-4B-base-instruct模型\n8. 🚀 Arcee AI发布Trinity Large稀疏MoE模型\n9. 🚀 艾伦AI发布开源编码模型SERA系列\n10. 🔧 Google AI Overviews升级支持对话交互\n11. 🔧 Gemini新增模型切换键盘快捷指令\n12. 🔧 Gemini 3 Flash引入Agentic Vision能力\n13. 🔧 GitHub仓库新增Agents管理标签页\n14. 🚀 Kilo Code发布AI代码审查工具\n15. 📈 Kiro调整免费用户Opus 4.5访问权限",
      "is_voice_generated": false
    }
  ],
  "page": 2,
  "total_pages": 8,
  "total_count": 143,
  "generated_time": "2026-03-24 08:51:29"
}