{
  "newspapers": [
    {
      "title": "DeepSeek 网页与App端对话服务屡现异常【AI 早报 2026-03-30】",
      "publish_date": "2026-03-30",
      "bv_id": "BV1qdXoBdEYy",
      "organize_time": "2026-03-30 08:40:31",
      "news_count": 4,
      "overview": "1. 📈 DeepSeek 网页与App端对话服务频繁出现异常\n2. 🔧 OpenClaw 更新集成 xAI 及插件审批功能\n3. 🚀 OpenAI 拟推出 Codex-only 订阅计划\n4. 🔧 Meta 测试 Avocado 模型，性能仍落后于主流",
      "is_voice_generated": false
    },
    {
      "title": "OpenAI 推出 Codex 用例库；Gemma 4 或将发布【AI 早报 2026-03-29】AI日报",
      "publish_date": "2026-03-29",
      "bv_id": "BV1zQX1BfE4j",
      "organize_time": "2026-03-29 08:40:09",
      "news_count": 7,
      "overview": "1. 🚀 OpenAI 推出 Codex 用例库，展示应用场景与使用技巧\n2. 🔧 飞书开源 lark-cli，支持 AI Agent 覆盖11个业务域\n3. 📈 OpenAI 明确 Sora 应用4月停服，API将于9月下线\n4. 🔧 fnOS 新增 OpenClaw 应用中心安装支持\n5. 📈 RaBitQ 团队质疑 Google TurboQuant 论文存在学术不端\n6. 📈 谷歌拟出资数十亿支持 Anthropic 得州数据中心建设\n7. 🚀 Google 新一代开源模型 Gemma 4 或将发布",
      "is_voice_generated": false
    },
    {
      "title": "智谱向 GLM Coding Plan 用户开放 GLM-5.1 模型使用【AI 早报 2026-03-28】",
      "publish_date": "2026-03-28",
      "bv_id": "BV1TXXgBGE6a",
      "organize_time": "2026-03-28 08:54:37",
      "news_count": 12,
      "overview": "1. 🚀 智谱向GLM Coding Plan用户开放GLM-5.1模型使用\n2. 🚀 KwaiKAT发布KAT-Coder-Pro V2代码模型\n3. 🔧 Meta发布SAM 3.1，支持单次追踪16个目标\n4. 🔧 Claude Code上线Windows PowerShell原生运行支持\n5. 📈 OpenRouter限制多地用户调用部分模型，称遵上游要求\n6. 📈 OpenAI重置Codex限额，调整开发者访问策略\n7. 🔧 NotebookLM支持后台生成与移动端推送通知\n8. 🚀 钉钉开源dws跨平台命令行工具，面向AI Agent场景\n9. 🚀 硅基流动推出AI算力运营服务\n10. 📈 Anthropic胜诉，拟四季度筹资600亿美元上市\n11. 📈 OpenAI ChatGPT广告年化收入突破1亿美元\n12. 📈 Anthropic泄露未发布模型Claude Mythos",
      "is_voice_generated": false
    },
    {
      "title": "Google 发布 Gemini 3.1 Flash Live 实时音频模型【AI 早报 2026-03-27】",
      "publish_date": "2026-03-27",
      "bv_id": "BV19LX8BuE8m",
      "organize_time": "2026-03-27 09:08:50",
      "news_count": 22,
      "overview": "1. 🚀 Google 发布 Gemini 3.1 Flash Live 实时音频模型\n2. 🚀 Suno 推出 Suno v5.5 模型及个性化声音功能\n3. 🔧 Cohere 发布开源语音识别模型 Cohere Transcribe\n4. 🚀 Mistral AI 发布 Voxtral TTS 语音合成模型\n5. 🔧 OpenDataLab 发布 MinerU-Diffusion-V1 图像生成模型\n6. 🔧 Meta 发布 TRIBE v2 三模态人脑响应预测模型\n7. 🚀 Chroma 发布 200 亿参数 Context-1 开源搜索模型\n8. 🔧 英伟达发布 gpt-oss-puzzle-88B 剪枝量化模型\n9. 🚀 智谱向 GLM Coding Plan 用户开放 GLM-5-Turbo 模型\n10. 🔧 Codex 上线 Plugins 插件功能支持扩展能力\n11. 🔧 Claude Code 推出云端 auto-fix 功能支持 PR 自动化修复\n12. 📈 Anthropic 调整 Claude 高峰时段使用限制\n13. 🚀 Cline 推出 Cline Kanban 多 Agent 编排工具\n14. 🔧 Gemini 新增导入其他AI应用记忆及聊天记录功能\n15. 🚀 Google Search Live 功能扩展至全球200余国\n16. 🚀 Google 翻译耳机实时翻译登陆 iOS 覆盖七国\n17. 📈 林俊旸发文提出认知模式转向 Agentic Thinking\n18. 🔧 Cursor 发布 Composer 2 报告披露 Kimi K2.5 训练细节\n19. 🚀 KwaiKAT 宣布品牌焕新并确认 KAT-Coder-Pro V2 即将发布\n20. 📈 特朗普任命 PCAST 首批成员黄仁勋扎克伯格入选\n21. 📈 月之暗面据称考虑赴港 IPO\n22. 📈 苹果被曝蒸馏 Gemini 以优化自研端侧模型",
      "is_voice_generated": false
    },
    {
      "title": "Google 发布音乐生成模型 Lyria 3 Pro 和 Lyria 3 Clip【AI 早报 2026-03-26】",
      "publish_date": "2026-03-26",
      "bv_id": "BV1fbXHB4EEa",
      "organize_time": "2026-03-26 09:22:54",
      "news_count": 20,
      "overview": "1. 🚀 Google 发布 Lyria 3 Pro 和 Lyria 3 Clip 音乐生成模型\n2. 🔧 美团开源 LongCat-Next 多模态离散自回归模型\n3. 🚀 北大与字节跳动联合发布开源视频生成模型 Helios\n4. 🔧 Google 明确 Gemini CLI 支持 ACP、A2A 及 Headless 模式\n5. 📈 GitHub 更新 Copilot 政策，个人版默认用于模型训练\n6. 🔧 Figma 向 AI agents 开放 Canvas 接口\n7. 🚀 谷歌推出 Vibe Coding XR，自然语言生成 WebXR 应用\n8. 🔧 Mozilla 推出 cq 项目实现 Agent 知识共享标准\n9. 🔧 Anthropic 为 Claude 移动端新增工作相关功能\n10. 🔧 OpenClaw 发布新版，增强兼容性并支持 Teams 与 Slack\n11. 🔧 Nous Research 发布 Hermes Agent v0.4.0\n12. 🔧 MiniMax 开源 Office Skills，支持四大办公文档格式\n13. 📈 阿里云 JVSClaw 全面开放，取消邀请码并新增 5GB 存储\n14. 🔧 Google Research 发布 TurboQuant，KV 缓存降低6倍\n15. 📈 OpenAI 披露 Model Spec 制定逻辑与评估套件\n16. 📈 ARC 发布 ARC-AGI-3 基准，现有模型得分均不足1%\n17. 📈 OpenAI 节省算力研发下代模型，Sam Altman 转攻数据中心建设\n18. 📈 OpenAI 推出安全漏洞赏金计划，聚焦AI滥用风险\n19. 🚀 英特尔发布 Arc Pro B70 显卡，售价949美元配32GB显存\n20. 📈 苹果据报重构 Siri，将推出独立应用",
      "is_voice_generated": false
    },
    {
      "title": "OpenAI 官方宣布关停 Sora 【AI 早报 2026-03-25】",
      "publish_date": "2026-03-25",
      "bv_id": "BV17WQCB7E4d",
      "organize_time": "2026-03-25 09:07:10",
      "news_count": 16,
      "overview": "1. 📈 OpenAI 官方宣布关停 Sora 应用\n2. 📈 LiteLLM 遭遇供应链攻击，两版本含窃凭证恶意代码\n3. 🚀 阿里通义实验室发布 PrismAudio，论文入选 ICLR 2026\n4. 🚀 Ai2 发布 MolmoWeb 开源视觉模型及数据集\n5. 🔧 英伟达开源 Kimodo 动作生成工具，适配类人机器人\n6. 🚀 京东云 JoyBuilder 上线 AI 编程订阅服务\n7. 🔧 Anthropic 发布 Claude Code 自动模式，支持安全权限自主决策\n8. 🔧 Adobe 升级 Firefly 平台，推出自定义模型功能\n9. 🚀 Linear 称 Issue Tracking 已死，推出 Agent 新功能\n10. 🔧 Anthropic 介绍 Harness 方案，优化 Claude 长流程开发能力\n11. 📈 国家数据局明确词元命名规范，日均调用量两年增长超千倍\n12. 📈 OpenAI 基金会启动运作，计划一年投资十亿美元推进 AGI\n13. 📈 OpenAI 调整 ChatGPT 电商战略，弱化结账功能转向产品发现\n14. 🚀 Arm 推出首款自研数据中心芯片 AGI CPU\n15. 📈 Agile Robots 与 Google DeepMind 达成战略合作\n16. 📈 Dreamer 团队加入 Meta，技术授权专注 AI Agent 开发",
      "is_voice_generated": false
    },
    {
      "title": "Claude 桌面端上线电脑操控功能；OpenClaw 连更两版【AI 早报 2026-03-24】",
      "publish_date": "2026-03-24",
      "bv_id": "BV12EXABHEmG",
      "organize_time": "2026-03-24 08:51:28",
      "news_count": 7,
      "overview": "1. 🚀 Claude 桌面端上线电脑操控功能，限 macOS 系统\n2. 🔧 OpenClaw 连更两个版本，功能大幅增强\n3. 🚀 Luma AI 发布 Uni-1 模型，实现推理与视觉同步处理\n4. 🚀 OpenAI 推出 ChatGPT Library 功能，面向付费用户推送\n5. 🔧 网易云音乐推出 CLI 工具，集成 OpenClaw 实现自动化\n6. 🚀 千问上线打车能力，支持自然语言叫车与支付\n7. 🔧 Cursor 介绍新型文本索引技术，降低 Agent 搜索延迟",
      "is_voice_generated": false
    },
    {
      "title": "微信正式推出 ClawBot 插件；阶跃星辰上线 Step Plan 订阅套餐【AI 早报 2026-03-23】AI日报",
      "publish_date": "2026-03-23",
      "bv_id": "BV1avQRBBEsr",
      "organize_time": "2026-03-23 08:35:51",
      "news_count": 8,
      "overview": "1. 🚀 微信正式推出 ClawBot 插件，支持接入 OpenClaw\n2. 🔧 Claude Code 测试新版 /init，引入交互式配置引导\n3. 🚀 阶跃星辰上线 Step Plan 订阅套餐，月费最低25元起\n4. 🔧 MiniMax 调整 Token Plan 额度方案，提供多模态模型每日配额\n5. 🔧 MiniMax AI 开源 Skills 仓库，涵盖九大核心技能\n6. 📈 阿里巴巴确认将持续开源 Qwen 及 Wan 新模型\n7. 🔧 MiniMax 确认 M2.7 权重将开源，预计两周内发布\n8. 🔧 MiniMax 确认 M3 模型将支持视觉功能",
      "is_voice_generated": false
    },
    {
      "title": "OpenAI 发布 GPT-5.4 前端设计指南，推出配套 frontend-skill【AI 早报 2026-03-22】",
      "publish_date": "2026-03-22",
      "bv_id": "BV1VvAKzeEqs",
      "organize_time": "2026-03-22 08:50:19",
      "news_count": 8,
      "overview": "1. 🚀 OpenAI 发布 GPT-5.4 前端设计指南及配套前端技能包\n2. 🔧 OpenAI 详解 Responses API 的 Agent 执行层构建路径\n3. 🔧 Browser Use 发布 CLI 2.0，性能提升显著\n4. 📈 WordPress.com 扩展 MCP 支持，AI Agent 获内容写入权限\n5. 🚀 智谱推出 GLM-Claw，定位为成长型 AI 生命体\n6. 📈 Anthropic 提出大模型时代产品管理四大核心原则\n7. 📈 美国发布国家 AI 立法框架，规范技术发展路径\n8. 📈 OpenAI 将向美国 ChatGPT 免费版和 Go 版用户展示广告",
      "is_voice_generated": false
    },
    {
      "title": "Cursor 承认 Composer 2 基于 Kimi K2.5，月之暗面确认授权合作【AI 早报 2026-03-21】",
      "publish_date": "2026-03-21",
      "bv_id": "BV1kQAszvEXR",
      "organize_time": "2026-03-21 09:04:43",
      "news_count": 18,
      "overview": "1. 🚀 Cursor 承认 Composer 2 基于 Kimi K2.5，月之暗面确认授权合作\n2. 🔧 Claude Code 上线云端定时任务，桌面版支持直接选择 DOM\n3. 📈 智谱与小米确认将继续推进开源模型战略\n4. 🚀 美团开源 LongCat-Flash-Prover 数学推理模型\n5. 🔧 英伟达发布 30B MoE 模型，IMO 与 IOI 竞赛获金牌成绩\n6. 🚀 Windsurf 向付费用户限免开放 Kimi K2.5 模型\n7. 🚀 OpenAI 推出面向学生的 Codex for Students 项目\n8. 📈 心流团队宣布 iFlow CLI 服务将于 2026 年 4 月关闭\n9. 🔧 Claude Cowork 推出 Projects 功能支持团队协作\n10. 🚀 腾讯 QClaw 开启全量公测，免邀请码打通五大平台\n11. 🔧 Lovable 拓展通用任务处理能力\n12. 🔧 OpenAI 构建 AI 研究员，2028 年拟发布全自动化系统\n13. 📈 蓝色起源申请部署近五万二千颗 AI 计算卫星\n14. 🚀 豆包开启 AI 电商功能内测，预计 3 月正式上线\n15. 📈 元宝宣布品牌标识升级，以全新形象面向用户\n16. 🔧 微软优化 Windows 11，削减 Copilot 集成并允许暂停更新\n17. 📈 消息称 OpenAI 将推超级应用整合 ChatGPT 等功能\n18. 📈 深度求索核心研究员郭达雅离职，或将加盟大厂负责 Code 业务",
      "is_voice_generated": false
    },
    {
      "title": "Cursor 发布 Composer 2 模型，Claude Code 推出 Channels 功能【AI 早报 2026-03-20】",
      "publish_date": "2026-03-20",
      "bv_id": "BV1K3A7zSEA2",
      "organize_time": "2026-03-20 08:48:57",
      "news_count": 18,
      "overview": "1. 🚀 Cursor 发布 Composer 2 模型，强化学习提升长周期编程能力\n2. 🔧 Claude Code 推出 Channels 功能，支持手机远程操控\n3. 🚀 Google AI Studio 上线全栈 Vibe Coding 功能\n4. 🚀 微软 AI 发布 MAI-Image-2 文生图模型\n5. 🔧 小红书 rednote-hilab 发布 dots.mocr，3B 参数支持图像转 SVG\n6. 🔧 TRAE IDE 登陆 Linux 平台，实现三大系统兼容\n7. 📈 Gemini API 更新计费策略，2026年4月设支出上限\n8. 📈 Windsurf 启用新定价，推出200美元Max计划\n9. 🔧 Cursor 发布早期 Alpha 版界面 Glass\n10. 🔧 LlamaIndex 开源 LiteParse，无需GPU秒解析五百页文档\n11. 🚀 字节小云雀 AI 上线短剧 Agent，全流程自动制作\n12. 🚀 阶跃星辰正式上线本地 AI Agent StepClaw\n13. 📈 OpenAI 披露内部 Agent 监控，覆盖99.9%流量未现高风险\n14. 📈 OpenAI 宣布收购 Astral，整合开源工具至 Codex 生态\n15. 📈 MiniMax 对 M2.7 实行高峰时段限流，新购用户增加周限\n16. 📈 昆仑万维天工 SkyReels V4 获 Artificial Analysis 视频榜第一\n17. 🚀 阿里千问官宣 Qwen3.5-Max-Preview 模型亮相 LM Arena\n18. 📈 腾讯确认研发微信 AI 智能体，或于第三季度上线",
      "is_voice_generated": false
    },
    {
      "title": "MiniMax 正式发布 M2.7 模型，同步推出 Token Plan【AI 早报 2026-03-19】",
      "publish_date": "2026-03-19",
      "bv_id": "BV1DjwkzbEZ4",
      "organize_time": "2026-03-19 09:18:14",
      "news_count": 25,
      "overview": "1. 🚀 MiniMax 发布 M2.7 模型，SWE-Pro 得分 56.22%\n2. 🚀 MiniMax 推出 Token Plan，支持全模态统一访问\n3. 🚀 小米发布 MiMo 系列三款模型并开放 API\n4. 🔧 Midjourney V8 模型开启早期测试，生成速度提升五倍\n5. 🚀 英伟达发布 Nemotron 3 Nano 4B 混合架构模型\n6. 🚀 百度千帆发布 40 亿参数 Qianfan-OCR 模型\n7. 🚀 Datalab 发布 Chandra OCR 2，olmocr 基准得分 85.9\n8. 🔧 Google 更新 Gemini API，简化 Agent 工作流开发\n9. 📈 谷歌调整 Gemini CLI 策略，免费用户仅可用 Flash 模型\n10. 🚀 火山引擎上线“火山联网搜索Skill”，个人免费500次调用\n11. 🔧 Claude Cowork Dispatch 功能向 Pro 用户开放，支持启动 Claude Code\n12. 🚀 Google Labs 升级 Stitch 为 vibe design AI 原生设计平台\n13. 🔧 腾讯 QClaw 更新，微信入口上线灵感广场\n14. 🚀 Perplexity 宣布 Comet 浏览器正式上线 iOS 平台\n15. 🚀 LiblibAI 上线 LibTV 专业视频平台，支持人类与 Agent 创作\n16. 🚀 Together AI 等发布 Mamba-3，优化推理效率设计\n17. 🔧 Anthropic 详解 Claude Code Skills 九大核心分类\n18. 📈 Anthropic 发布 8 万用户研究，揭示全球 AI 期望与担忧\n19. 📈 微软或将起诉 OpenAI 与亚马逊，涉 500 亿美元云协议\n20. 📈 阿里云 2026 年 4 月起调整 AI 算力价格，最高涨幅 34%\n21. 📈 OpenAI 启动 Parameter Golf 挑战赛，挖掘顶尖人才\n22. 📈 苹果拦截 Replit 等 Vibe Coding 应用在 App Store 的更新\n23. 🚀 腾讯官宣混元 HY 3.0 预计 4 月上线\n24. 📈 消息称英伟达筹备面向中国的 Groq 芯片，预计 5 月上市\n25. 🔧 Google AI Studio 将推全新 vibe coding，历时四月重构",
      "is_voice_generated": false
    },
    {
      "title": "OpenAI 发布 GPT-5.4 mini 与 GPT-5.4 nano 模型【AI 早报 2026-03-18】",
      "publish_date": "2026-03-18",
      "bv_id": "BV1iQwYzCEh6",
      "organize_time": "2026-03-18 09:47:16",
      "news_count": 1,
      "overview": "1. 🚀 OpenAI 发布 GPT-5.4 mini 与 GPT-5.4 nano 模型",
      "is_voice_generated": false
    },
    {
      "title": "Google 逐步向香港用户开放 Gemini 应用【AI 早报 2026-03-17】",
      "publish_date": "2026-03-17",
      "bv_id": "BV1ZiwSzZEjK",
      "organize_time": "2026-03-17 09:16:49",
      "news_count": 1,
      "overview": "1. 🚀 Google 逐步向香港用户开放 Gemini 应用",
      "is_voice_generated": false
    },
    {
      "title": "智谱发布 GLM-5-Turbo，专为 OpenClaw 等 Agent 驱动环境优化【AI 早报 2026-03-16】",
      "publish_date": "2026-03-16",
      "bv_id": "BV1hxw5zUExG",
      "organize_time": "2026-03-16 08:46:25",
      "news_count": 8,
      "overview": "1. 🚀 智谱发布GLM-5-Turbo，专为Agent环境优化\n2. 📈 智谱开启GLM Coding Plan限时服务窗口\n3. 🚀 智谱推出‘龙虾套餐’，GLM-5-Turbo支持200K上下文\n4. 🔧 NotebookLM向Pro用户开放电影级视频概览功能\n5. 📈 央视3·15曝光GEO业务投毒AI大模型操纵搜索结果\n6. 🔧 微软上线NVIDIA Vera Rubin NVL72系统云服务\n7. 📈 传月之暗面拟融资10亿美元，估值达180亿美元\n8. 🔧 MiniMax官网显示M2.7字符，新模型或将发布",
      "is_voice_generated": false
    },
    {
      "title": "Claude 推出限时促销，非高峰及周末使用额度翻倍【AI 早报 2026-03-15】",
      "publish_date": "2026-03-15",
      "bv_id": "BV1EBwKzBEHz",
      "organize_time": "2026-03-15 09:15:58",
      "news_count": 7,
      "overview": "1. 📈 Claude 推出限时促销，非高峰及周末使用额度翻倍\n2. 🔧 智谱推迟 GLM Coding Plan 续订与回退窗口\n3. 🚀 StepFun 发布 Step 3.5 Flash 模型训练数据\n4. 🔧 Z Code 发布 V0.22.1，上线浅色主题并接入 OpenCode\n5. 📈 消息称字节跳动暂停 Seedance 2.0 全球发布，涉迪士尼版权纠纷\n6. 🔧 OpenClaw 发布更新，支持接入实时 Chrome 会话\n7. 📈 腾讯云启动“龙虾”全国免费安装，40 天覆盖 17 城",
      "is_voice_generated": false
    },
    {
      "title": "Claude 正式上线 100 万 token 上下文，取消阶梯计费【AI 早报 2026-03-14】",
      "publish_date": "2026-03-14",
      "bv_id": "BV1LDwHz1E6Q",
      "organize_time": "2026-03-14 09:15:28",
      "news_count": 21,
      "overview": "1. 🚀 Claude 正式上线 100 万 token 上下文，取消阶梯计费\n2. 🚀 上海人工智能实验室发布 InternVL-U 统一多模态模型\n3. 📈 智谱调整 GLM Coding Plan 折扣，拼好模门槛提高\n4. 🔧 Codex 应用正式上线自动化功能与主题个性化\n5. 🔧 Chrome 146 正式发布，支持 MCP 暴露会话供 CLI 使用\n6. 🚀 CopilotKit 开源 OpenGenerativeUI，支持 AI Agent 生成交互 UI\n7. 🚀 Vue 作者尤雨溪推出 Vite 原生部署平台 Void\n8. 🔧 Qoder 正式支持 BYOK 接入多家大模型\n9. 🔧 OpenClaw 发布 v2026.3.12，推出 Dashboard v2 调整架构\n10. 📈 绿联科技携手 MiniMax 合作，NAS 上线 OpenClaw\n11. 🚀 Genspark 发布 AI Workspace 3.0\n12. 📈 BrowserOS 宣布 Kimi K2.5 为默认提供商，开启 2 周限免\n13. 🚀 阿里云 JVS Claw 上线移动 App，配 12GB 内存独立云环境\n14. 🚀 谷歌推出 Groundsource，解析新闻数据预测城市山洪\n15. 📈 AWS 携手 Cerebras 整合 Trainium 与 CS-3，加速 AI 推理服务\n16. 📈 特斯拉与 xAI 启动数字擎天柱自动化办公系统\n17. 📈 xAI 全面重组，半数联合创始人离职\n18. 🚀 爱诗科技完成 C 轮融资，发布 PixVerse R1 实时模型\n19. 📈 杨植麟将于英伟达 GTC 演讲，或披露 Kimi K3 信息\n20. 📈 消息称 Meta 推迟 Avocado 模型发布，最早至五六月\n21. 📰 Fenz AI 发现 SkillHub 插件存 Prompt 注入风险",
      "is_voice_generated": false
    },
    {
      "title": "GitHub 大砍 Copilot 学生计划；Claude 上线生成交互式图表功能【AI 早报 2026-03-13】",
      "publish_date": "2026-03-13",
      "bv_id": "BV142c2zhELS",
      "organize_time": "2026-03-13 09:29:37",
      "news_count": 24,
      "overview": "1. 🚀 GitHub 调整 Copilot 学生计划，取消 GPT-5.4 等模型自选权限\n2. 🔧 Claude 支持生成式 UI，聊天界面构建交互式图表\n3. 🔧 OpenAI 视频 API 上线新功能\n4. 🚀 NVIDIA 发布 NVILA-8B-HD-Video 模型，支持 4K 视频输入\n5. 🔧 Claude Code 推出语音模式，引入设置脚本功能\n6. 📈 Google 调整 Antigravity 计费，Pro 刷新周期延至 7 天\n7. 🔧 Google Gemini API 现可设置消费上限\n8. 🔧 OpenRouter 上线 Auto Exacto 降低工具调用错误率\n9. 🚀 Hermes Agent v0.2.0 发布，支持多 IDE 集成\n10. 🔧 斯坦福大学开源 OpenJarvis 框架支持本地优先个人 AI\n11. 🚀 谷歌地图集成 Gemini 推出十多年来最大规模升级\n12. 🔧 xAI 发布 Grok 新视频功能，支持 7 张参考图转视频\n13. 🚀 微软推出 Copilot Health 整合设备与健康记录数据\n14. 📈 OpenClaw 生态密集更新，百度联想阶跃发布新服务\n15. 🚀 Perplexity 向Pro 用户开放 Perplexity Computer\n16. 🔧 淘宝 PC 端支持 MCP，可接入 OpenClaw\n17. 🚀 ComfyUI 发布 App Mode 及 ComfyHub 支持工作流分享\n18. 🔧 Canva 推出 Magic Layers 支持平面图转多层可编辑\n19. 🔧 Cursor 发布 CursorBench 评测体系，优化 Agent 编程评估\n20. 📈 Google 完成收购 Wiz，将加入 Google Cloud 运营\n21. 📈 腾讯回应 OpenClaw 数据争议：称仅拉取 1GB 分担流量\n22. 🚀 智谱新模型启动内测，面向 Max 计划用户开放申请\n23. 📈 阿里 Qwen 后训练负责人郁博文加盟字节跳动 Seed 团队\n24. 📈 英伟达计划五年投入 260 亿美元研发开放权重 AI 模型",
      "is_voice_generated": false
    },
    {
      "title": "深圳龙岗拟扶持 OpenClaw；工信部预警其安全风险【AI 早报 2026-03-09】",
      "publish_date": "2026-03-09",
      "bv_id": "BV1jYPUzfES1",
      "organize_time": "2026-03-09 09:02:35",
      "news_count": 6,
      "overview": "1. 📈 深圳龙岗拟扶持OpenClaw，工信部预警其安全风险\n2. 📈 Codex重置Plus与Pro订阅限额\n3. 🔧 OpenClaw发布v2026.3.7版本，新增ACP绑定功能\n4. 🔧 Karpathy开源autoresearch，实现单GPU自动LLM训练实验\n5. 📈 Kilo发布PinchBench榜单，Gemini-3以95.1%登顶\n6. 🚀 腾讯内测QClaw本地部署包，支持微信直连",
      "is_voice_generated": false
    },
    {
      "title": "智谱向部分用户发放 15 天订阅费用等值补偿赠金【AI 早报 2026-03-08】",
      "publish_date": "2026-03-08",
      "bv_id": "BV1azNTzqEw2",
      "organize_time": "2026-03-08 09:02:07",
      "news_count": 7,
      "overview": "1. 📈 智谱向部分用户发放15天订阅费用等值补偿赠金\n2. 🚀 腾讯发布视觉语言模型Penguin-VL\n3. 🔧 Claude Code新增/Loop命令支持会话内周期性任务\n4. 🚀 xAI上线文本转语音API支持五种语音及情感控制\n5. 🔧 QQ支持接入OpenClaw\n6. 🔧 阿里巴巴与武汉大学联合推出AgeMem记忆框架\n7. 📈 Cursor加码自研模型",
      "is_voice_generated": false
    }
  ],
  "page": 1,
  "total_pages": 8,
  "total_count": 149,
  "generated_time": "2026-03-30 08:40:33"
}