{
  "newspapers": [
    {
      "title": "通义千问发布Qwen-Image-2512；腾讯混元开源Youtu-LLM-2B；小米延长MiMo-V2-Flash公测【AI 早报 2026-01-01】",
      "publish_date": "2026-01-01",
      "bv_id": "BV18WiLBUEP6",
      "organize_time": "2026-01-01 09:12:59",
      "news_count": 13,
      "overview": "1. 🚀 通义千问发布Qwen-Image-2512图像生成模型\n2. 🚀 腾讯开源Youtu-LLM-2B小型大语言模型\n3. 🔧 小米延长MiMo-V2-Flash模型免费公测至1月20日\n4. 🔧 Qwen Code发布v0.6.0版本，新增实验性Skills功能\n5. 🚀 SK Telecom开源A.X-K1大模型，支持13万上下文\n6. 🚀 LG AI Research发布K-EXAONE-236B-A23B混合专家模型\n7. 🚀 Upstage发布Solar-Open-100B商用开源模型\n8. 🚀 NC-AI consortium开源VAETKI-112B-A10B多语言模型\n9. 🚀 细红线发布AI讲书应用“且听”\n10. 📈 月之暗面完成5亿美元C轮融资，估值达43亿美元\n11. 📈 英伟达洽谈30亿美元收购AI21 Labs\n12. 📈 软银40亿美元收购DigitalBridge布局AI算力\n13. 📈 xAI建设第三座超大规模数据中心",
      "is_voice_generated": false
    },
    {
      "title": "突发！DeepSeek 悄悄更新，用户热议！【AI 早报 2025-12-31】",
      "publish_date": "2025-12-31",
      "bv_id": "BV1QEiPBpEbN",
      "organize_time": "2025-12-31 08:57:09",
      "news_count": 12,
      "overview": "1. 🔧 DeepSeek App新增语音输入功能，用户热议更新\n2. 🚀 腾讯开源HY-MT1.5翻译模型，支持33种语言互译\n3. 🚀 腾讯发布HY-Motion 1.0文生3D动作模型\n4. 🚀 字节跳动推出语音驱动AI工作空间AnyGen\n5. 🔧 通义千问即将发布Qwen-Image-2512图像生成模型\n6. 🔧 OpenBMB与THUNLP发布法律推理基准LexChain\n7. 🔧 X平台扩展Grok Imagine画幅选项至5种比例\n8. 🔧 Notion开发自定义AI Agent功能，支持自动化触发\n9. 📈 Adobe与Runway达成战略合作，集成Gen-4.5模型\n10. 📈 软银完成对OpenAI 400亿美元投资承诺\n11. 📈 智谱AI启动港股招股，预计1月8日挂牌上市\n12. 📈 MiniMax启动港股招股，预计1月9日挂牌上市",
      "is_voice_generated": false
    },
    {
      "title": "阿里通义开源GUI智能体MAI-UI模型；快手KwaiKAT推出Coding Plan订阅包【AI 早报 2025-12-30】",
      "publish_date": "2025-12-30",
      "bv_id": "BV1EHvbBeEuc",
      "organize_time": "2025-12-30 09:11:23",
      "news_count": 10,
      "overview": "1. 🚀 阿里通义开源GUI智能体MAI-UI模型\n2. 🚀 快手KwaiKAT推出Coding Plan订阅包\n3. 🔧 Antigravity回应Agent报错配额问题\n4. 🔧 OpenAI移动端ChatGPT新增Thinking时长切换功能\n5. 🚀 Naver开源HyperCLOVA X SEED系列模型\n6. 🚀 fal开源FLUX.2-dev-Turbo图像生成模型\n7. 🚀 腾讯开源WeDLM-8B-Instruct扩散语言模型\n8. 🔧 腾讯元宝上线任务管理功能\n9. 📈 Meta收购AI Agent初创公司Manus\n10. 📈 火山引擎成为2026年总台春晚独家AI云合作伙伴",
      "is_voice_generated": false
    },
    {
      "title": "字节跳动2026年或采购超400亿国产算力设备；有关部门公开征求意见拟规范AI拟人化互动服务【AI 早报 2025-12-29】",
      "publish_date": "2025-12-29",
      "bv_id": "BV1KHvUBKECR",
      "organize_time": "2025-12-29 08:55:39",
      "news_count": 4,
      "overview": "1. 📈 字节跳动2026年拟采购超400亿元国产算力设备\n2. 🚀 SK Telecom发布韩国首个5190亿参数超大规模AI模型AX K1\n3. 📰 精神科医生警示AI聊天机器人或引发精神健康风险\n4. 📈 有关部门拟规范AI拟人化互动服务，明确心理安全与数据使用边界",
      "is_voice_generated": false
    },
    {
      "title": "未来已至！AI失控前兆？Altman急招“救世主”，这工作谁敢接？【AI 早报 2025-12-28】",
      "publish_date": "2025-12-28",
      "bv_id": "BV1mEvqBBEjF",
      "organize_time": "2025-12-28 08:54:59",
      "news_count": 4,
      "overview": "1. 📈 OpenAI紧急招聘Preparedness负责人应对AI安全风险\n2. 🚀 阶跃星辰发布Step-DeepResearch模型对标国际先进水平\n3. 🔧 llama.cpp实验性支持Blackwell MXFP4格式提升推理速度\n4. 📈 Andrej Karpathy谈AI编程重构：开发者需掌握新抽象层",
      "is_voice_generated": false
    },
    {
      "title": "超乎想象！MiniMax开启限时优惠；智谱AI赠送订阅用户奶茶【AI 早报 2025-12-27】",
      "publish_date": "2025-12-27",
      "bv_id": "BV1y9BBB5Ewq",
      "organize_time": "2025-12-27 08:39:21",
      "news_count": 6,
      "overview": "1. 🚀 MiniMax开源M2.1编程模型并开启限时优惠\n2. 📈 智谱AI为GLM Coding Plan订阅用户赠送奶茶券\n3. 🔧 Antigravity无限期维持Flash模型高速率限制\n4. 🔧 Yann LeCun发布VL-JEPA实时视觉语言模型\n5. 🚀 Google新图像模型Nano Banana Pro Flash曝光\n6. 📈 日本政府通过AI基本计划拟投逾1万亿日元",
      "is_voice_generated": true
    },
    {
      "title": "紧急！Codex额度翻倍，错过等一年！X平台AI编辑引爆版权争议！【AI早报 2025-12-26】",
      "publish_date": "2025-12-26",
      "bv_id": "BV1b7BZB6E7w",
      "organize_time": "2025-12-26 09:08:35",
      "news_count": 7,
      "overview": "1. 🚀 Codex宣布额度翻倍至明年1月1日\n2. 📈 X平台AI图片编辑器引版权争议，创作者抗议\n3. 🚀 质普发布AI协同开发工具z code alpha版\n4. 🔧 OpenB与清华团队联合推出deep think v1模型\n5. 🔧 Liquid AI开源26亿参数强化学习模型\n6. 🚀 腾讯云推出ETC领域首款智能体\n7. 📈 硅基流动发布2025大模型使用年度报告",
      "is_voice_generated": true
    },
    {
      "title": "大波福利来袭：TRAE CN宣布开放SOLO模式；Windsurf 上线 SWE-1.5 Free【AI 早报 2025-12-25】",
      "publish_date": "2025-12-25",
      "bv_id": "BV1L8BSB8EvX",
      "organize_time": "2025-12-25 09:04:27",
      "news_count": 12,
      "overview": "1. 🚀 TRAE中国版开放SOLO模式并内置多款免费国产模型\n2. 🔧 Windsurf发布Wave 13更新，上线SWE-1.5 Free模型\n3. 📈 Anthropic为Claude Pro与Max用户提供假日双倍额度\n4. 🚀 Lovable.dev限时赠送两个月Pro订阅服务\n5. 📈 Google One推出AI Pro年度方案半价限时优惠\n6. 🔧 智谱AI上线Zread MCP服务器支持IDE内分析GitHub仓库\n7. 🚀 Kilo Code发布App Builder浏览器端应用开发工具\n8. 🔧 StepFun发布NextStep-1.1图像生成模型\n9. 🔧 Nebius发布OpenHands轨迹数据集与RFT微调模型\n10. 📈 Google发布2025年度AI研究成果汇总\n11. 📈 OpenAI探索ChatGPT内置广告商业化方案\n12. 📈 英伟达与Groq达成200亿美元推理技术许可协议",
      "is_voice_generated": false
    },
    {
      "title": "MiniMax正式发布M2.1模型；Qwen开源Qwen-Image-Edit-2511模型【AI 早报 2025-12-24】",
      "publish_date": "2025-12-24",
      "bv_id": "BV1LHB3BHEJP",
      "organize_time": "2025-12-24 09:03:39",
      "news_count": 9,
      "overview": "1. 🚀 MiniMax发布M2.1模型，移动端性能显著提升\n2. 🚀 Qwen开源Qwen-Image-Edit-2511图像编辑模型\n3. 🚀 Qwen推出Qwen3-TTS系列语音合成模型\n4. 🚀 阿里云通义Fun团队开源Audio-Chat-8B音频模型\n5. 🔧 智谱团队透露GLM-5规划并即将发布新IDE工具\n6. 🔧 Diffusers新增Z-Image-Omni-Base模型\n7. 📈 Poetiq harness刷新ARC-AGI-2评测纪录至75%\n8. 🚀 xAI发布Grok Collections API，集成OCR与RAG技术\n9. 🔧 FunctionGemma本地微调指南发布，支持自定义工具调用",
      "is_voice_generated": false
    },
    {
      "title": "智谱AI发布GLM-4.7模型；MiniMax Agent 平台上线 MiniMax M2.1【AI 早报 2025-12-23】",
      "publish_date": "2025-12-23",
      "bv_id": "BV1HkB8BSErM",
      "organize_time": "2025-12-23 09:02:52",
      "news_count": 16,
      "overview": "1. 🚀 智谱AI发布GLM-4.7开源旗舰模型\n2. 🚀 MiniMax Agent平台上线M2.1模型\n3. 🔧 月之暗面展示Kimi K2企业Agent应用\n4. 🚀 阿里通义发布Wan2.6-Image商用图像生成模型\n5. 🔧 Anthropic开源官方Agent Skills仓库\n6. 🔧 Codex推出后台进程实验性功能\n7. 🚀 OpenAI推出ChatGPT年度回顾功能\n8. 🔧 OpenAI发布Atlas安全更新防御提示注入\n9. 🔧 Google Colab预装Gemini CLI工具\n10. 🚀 Google DeepMind发布YouTube Playables Builder\n11. 📈 谷歌母公司47.5亿美元收购Intersect能源公司\n12. 📈 英伟达重组云部门并收缩云业务\n13. 🔧 NVIDIA发布Unsloth微调指南与Nemotron 3 Nano\n14. 📈 微软CEO纳德拉亲自抓Copilot产品改进\n15. 🚀 Jan团队发布Jan-v2-VL-max 30B多模态模型\n16. 🚀 夸克开启AI眼镜G1系列预售",
      "is_voice_generated": false
    },
    {
      "title": "震惊！AI胡言乱语的真相找到了！清华揭秘LLM幻觉神经元【AI早报 2025-12-22】",
      "publish_date": "2025-12-22",
      "bv_id": "BV1GmBHB5Eny",
      "organize_time": "2025-12-22 08:46:51",
      "news_count": 6,
      "overview": "1. 🔧 清华与OpenBMB发现LLM幻觉神经元\n2. 🚀 Google发布医学语音识别模型MedASR\n3. 🚀 纳瓦拉大学发布可解释AI工具RNACOREX\n4. 📈 xAI成立AI游戏工作室开发动态游戏世界\n5. 🚀 OpenAI开发ChatGPT视觉UI并洽谈电商合作\n6. 📈 MiniMax通过港交所上市聆讯",
      "is_voice_generated": false
    },
    {
      "title": "Sam Altman：明年Q1将发布超越GPT-5.2的模型【AI 早报 2025-12-21】",
      "publish_date": "2025-12-21",
      "bv_id": "BV1r1q2BZEuY",
      "organize_time": "2025-12-21 08:46:08",
      "news_count": 12,
      "overview": "1. 🚀 Sam Altman透露OpenAI将于2025年Q1发布超越GPT-5.2的新模型\n2. 🔧 NotebookLM底层模型升级至Gemini 3，强化推理与多模态能力\n3. 🔧 Claude Code 2.0.74发布，新增LSP工具支持代码跳转与引用查找\n4. 🔧 Anthropic开源AI行为评估工具Bloom，支持自动化模型行为量化\n5. 🔧 OpenRouter支持Claude Code集成，实现多模型路由调用\n6. 🚀 Firecrawl推出AI数据爬虫Agent，支持自然语言指令提取结构化数据\n7. 🚀 LongVie 2长视频世界模型发布，支持生成5分钟720P视频\n8. 🔧 苏黎世大学与科隆大学发布历史语言模型Ranke-4B系列\n9. 🔧 SixAI Lab开源视觉自监督学习方法NEPA，简化视觉预训练\n10. 🔧 Google确认Gemini 3.0 Pro将持续提升性能，预览版非最终形态\n11. 📈 Google起诉SerpApi非法爬取并转售搜索结果数据\n12. 🚀 摩尔线程发布新一代GPU架构与AI芯片华山、庐山",
      "is_voice_generated": false
    },
    {
      "title": "阿里Qwen团队开源 Qwen-Image-Layered【AI 早报 2025-12-20】",
      "publish_date": "2025-12-20",
      "bv_id": "BV1pSBwB3E6B",
      "organize_time": "2025-12-20 09:00:17",
      "news_count": 20,
      "overview": "1. 🚀 Qwen开源图像分层编辑模型\n2. 🔧 Codex CLI支持Skills功能\n3. 🚀 Gemini CLI向免费用户开放Gemini 3\n4. 🔧 Gemini App集成NotebookLM功能\n5. 🚀 Google发布Gemma Scope 2可解释性工具\n6. 🚀 Google推出A2UI智能体驱动UI协议\n7. 🚀 NVIDIA发布NitroGen游戏智能体模型\n8. 🚀 Meta开源Text Seal水印检测工具\n9. 🚀 Will McGugan发布终端AI工具Toad\n10. 🔧 AI推理新基准FrontierCS发布\n11. 🚀 Transluce AI发布模型行为解码器\n12. 🚀 MiniMax开放M2.1模型体验申请\n13. 🔧 智谱GLM-4.7模型即将发布\n14. 📈 智谱AI通过港交所聆讯\n15. 🚀 全光学芯片莱震发布\n16. 🔧 字节发布C Prover 1.5技术报告\n17. 📈 Meta开发Mango与Avocado新模型\n18. 📈 Koder收购代码审查平台Graph\n19. 📈 Andrej Karpathy年度回顾发布\n20. 📈 Google成立算力分配委员会",
      "is_voice_generated": false
    },
    {
      "title": "编程的神？OpenAI 发布 GPT-5.2-Codex；字节跳动发布豆包大模型1.8【AI 早报 2025-12-19】",
      "publish_date": "2025-12-19",
      "bv_id": "BV1NgqRBRE8e",
      "organize_time": "2025-12-19 09:14:08",
      "news_count": 28,
      "overview": "1. 🚀 OpenAI发布GPT-5.2-Codex编码模型\n2. 🚀 字节跳动发布豆包大模型1.8版本\n3. 🚀 Mistral AI发布Mistral OCR 3文档理解模型\n4. 🔧 Claude向付费用户开放Chrome浏览器扩展\n5. 🔧 Anthropic发布Claude Code 2.0.72版本更新\n6. 📈 Anthropic发布Agent Skills开放标准\n7. 🔧 Google发布Gemini CLI扩展Conductor\n8. 🔧 Google NotebookLM新增Data Tables功能\n9. 🔧 Google Gemini应用新增AI视频验证功能\n10. 🔧 OpenAI推出ChatGPT聊天置顶功能\n11. 📈 OpenAI宣布Sora在拉美十国上线\n12. 🔧 OpenAI Atlas浏览器发布重要更新\n13. 🔧 JetBrains上线BYOK（自带密钥）功能\n14. 🔧 SGLang上线Ollama兼容API\n15. 🚀 Google发布T5Gemma 2系列模型\n16. 🚀 Google发布Jama 270M开源函数调用模型\n17. 🔧 MiniMax视频团队开源VTP视觉生成框架\n18. 🚀 Meta发布统一3D重建模型NerfBlend V1\n19. 🔧 Meta开源PerceptionDer Audio-VI多模态编码器\n20. 🚀 Meta发布PC系列自监督视觉基础模型\n21. 🔧 Mylab实现万亿参数混合专家模型强化学习系统\n22. 📈 Google DeepMind与OpenAI参与美国能源部科学计划\n23. 📈 Anthropic发布用户心理安全保护措施\n24. 🔧 OpenAI发布思维链可监控性评估研究成果\n25. 📈 OpenAI更新Model Policy新增UNDER18PS青少年保护条款\n26. 📈 OpenAI推出面向新闻机构的AI学习平台\n27. 📈 中科曙光展出SKYX万卡超集群智能计算系统\n28. 📈 苏黎世联邦理工学院与AI合作证明数学定理",
      "is_voice_generated": false
    },
    {
      "title": "以下克上？Google发布Gemini 3 Flash模型；OpenAI开放 ChatGPT 应用提交【AI 早报 2025-12-18】",
      "publish_date": "2025-12-18",
      "bv_id": "BV1Y3qJBTER4",
      "organize_time": "2025-12-18 09:12:55",
      "news_count": 22,
      "overview": "1. 🚀 Google发布Gemini 3 Flash模型\n2. 🔧 Gemini CLI集成Gemini 3 Flash\n3. 🚀 OpenAI开放ChatGPT应用提交\n4. 🚀 微软发布TRELLIS.2 3D生成模型\n5. 🚀 腾讯开源HY World 1.5世界模型\n6. 🚀 通义发布QwenLong-L1.5模型\n7. 🚀 Browser Use发布BU-30B-A3B模型\n8. 🔧 阶跃星辰升级Step-GUI模型\n9. 🚀 xAI发布Grok Voice Agent API\n10. 🚀 Exa AI发布十亿级人物搜索\n11. 🔧 蚂蚁开源A-Environment平台\n12. 🔧 SGL团队发布迷你SGL推理框架\n13. 🔧 昂斯老推出手机端微调方案\n14. 📈 论文揭示模型隐藏意图能力\n15. 📈 OpenAI拟升级Code模型至GPT5.2\n16. 📈 Minimax将发布M2.1模型\n17. 📈 字节将发布豆包Seed1.8模型\n18. 📈 OpenAI拟融资100亿美元\n19. 📈 英伟达拟削减RTX50供应\n20. 📈 Anthropic合作建70亿数据中心\n21. 📈 Firefox将进化为AI浏览器\n22. 📈 Lovable估值达66亿美元",
      "is_voice_generated": false
    },
    {
      "title": "对标DeepSeek，API限时免费！小米开源 309B MoE 模型 MiMo-V2-Flash【AI 早报 2025-12-17】",
      "publish_date": "2025-12-17",
      "bv_id": "BV1Exq3BRE6k",
      "organize_time": "2025-12-17 09:11:35",
      "news_count": 18,
      "overview": "1. 🚀 小米开源309B MoE模型MiMo-V2-Flash\n2. 🚀 OpenAI发布GPT Image 1.5图像模型\n3. 🚀 字节跳动发布Seedance 1.5 Pro音视频模型\n4. 🚀 阿里发布万相2.6视频生成模型\n5. 🚀 美团开源LongCat-Video-Avatar角色动画模型\n6. 🚀 NVIDIA发布Nemotron-Cascade推理模型\n7. 🚀 Ai2发布Molmo 2多模态模型\n8. 🚀 BFL发布FLUX.2 [max]图像生成模型\n9. 🚀 Meta发布SAM Audio音频分离模型\n10. 🔧 Claude Code发布多项功能更新\n11. 🚀 Google推出AI Agent CC邮箱助手\n12. 🔧 OpenAI推出Frontier Science基准\n13. 🚀 Video AI启动全球公测\n14. 🔧 AJS框架在OS World测试中超越人类\n15. 🔧 Cua发布跨NCH综合评估框架\n16. 📈 贝塔斯曼融资40亿美元估值1340亿\n17. 📈 No神以110亿美元估值进行融资\n18. 📈 NVIDIA收购Slurm开发商MD",
      "is_voice_generated": false
    },
    {
      "title": "重磅！Gemini、Gemma、MiniMax 新模型将发！Google、阿里、OpenAI、NVIDIA大动作！【AI早报 2025-12-16】",
      "publish_date": "2025-12-16",
      "bv_id": "BV1CKqtBkELD",
      "organize_time": "2025-12-16 09:10:27",
      "news_count": 20,
      "overview": "1. 🚀 阿里通义开源两款语音模型\n2. 🚀 OpenAI发布三款音频模型\n3. 🚀 AI2发布Bolmo字节级语言模型\n4. 🚀 NVIDIA推出Nemotron 3开源系列\n5. 🔧 KwaiKAT升级代码模型\n6. 🔧 LongCat启动Flash-Chat灰度更新\n7. 🚀 ResembleAI开源语音克隆模型\n8. 🔧 Google增强Gemini视觉报告功能\n9. 📰 Google Gemini Agent支持租车\n10. 📰 ChatGPT移动端支持分支对话\n11. 📰 Claude上线礼品卡服务\n12. 🚀 Manus发布1.6版本及移动开发功能\n13. 📰 蚂蚁集团AI应用升级为“阿福”\n14. 🚀 商汤发布Seko 2.0智能体\n15. 🚀 阿里云WAN 2.6即将发布\n16. 🔧 llama.cpp实现GPU内存自动化\n17. 🚀 IBM发布开源Agent CUGA\n18. 🚀 zai-org开源角色动画框架\n19. 🔧 RealGen提升图像生成真实感\n20. 🚀 苹果发布Sharp视图合成模型",
      "is_voice_generated": false
    },
    {
      "title": "xAI发布Grok应用更新【AI 早报 2025-12-15】",
      "publish_date": "2025-12-15",
      "bv_id": "BV1oumkBAEQM",
      "organize_time": "2025-12-15 08:39:25",
      "news_count": 5,
      "overview": "1. 🚀 xAI发布Grok应用更新，支持多图回复\n2. 📈 OpenAI员工离职指控公司回避AI负面经济研究\n3. 🔧 Anthropic提出SGTM方法实现LLM知识移除\n4. 🚀 MiniGuard-v0.1安全分类器模型发布\n5. 🔧 CKA-Agent提出LLM安全护栏绕过框架",
      "is_voice_generated": false
    },
    {
      "title": "英伟达否认DeepSeek使用禁售Blackwell芯片传闻【AI 早报 2025-12-14】",
      "publish_date": "2025-12-14",
      "bv_id": "BV1rWmeBDEUV",
      "organize_time": "2025-12-14 08:53:43",
      "news_count": 8,
      "overview": "1. 🚀 Gemini集成Google Maps提供视觉化本地搜索\n2. 🔧 Google推出NotebookLM与Gemini集成功能\n3. 🔧 Gemini Web界面出现Gemini 3 Flash字样\n4. 🚀 SID发布SID-1检索模型技术报告\n5. 🚀 NVIDIA发布gpt-oss-120b Eagle3吞吐量优化模型\n6. 🔧 MotionEdit发布运动中心图像编辑数据集与框架\n7. 📈 英特尔拟16亿美元收购SambaNova\n8. 📈 英伟达否认DeepSeek使用禁售Blackwell芯片传闻",
      "is_voice_generated": false
    },
    {
      "title": "Google 更新 Gemini 2.5 Flash Native Audio【AI 早报 2025-12-13】",
      "publish_date": "2025-12-13",
      "bv_id": "BV1qkmSB9EJ4",
      "organize_time": "2025-12-13 09:37:53",
      "news_count": 17,
      "overview": "1. 🚀 Google更新Gemini 2.5 Flash音频模型\n2. 🔧 Claude Code新增Android支持与多项更新\n3. 🔧 OpenAI Codex CLI支持设备登录与Skills机制\n4. 🔧 Google Gemini CLI新增会话管理功能\n5. 🔧 Chrome DevTools集成AI调试与MCP支持\n6. 🔧 Kiro CLI集成代码智能与LSP支持\n7. 🚀 字节跳动开源Dolphin-v2文档解析模型\n8. 🚀 OpenAI为Sora推出三种新风格\n9. 🚀 Runway发布GWM-1通用世界模型\n10. 🚀 智谱AI上线AutoGLM-Phone智能助理框架\n11. 🔧 llama.cpp新增模型路由模式\n12. 🚀 Ai2发布Olmo 3.1模型系列\n13. 🔧 智谱开源四项视频生成核心技术\n14. 🔧 伯克利发布DS Serve高效检索框架\n15. 🚀 SCAIL发布角色动画新框架\n16. 🚀 Tinker平台正式发布并更新\n17. 🔧 Google DeepMind展示Veo机器人评估系统",
      "is_voice_generated": false
    }
  ],
  "page": 3,
  "total_pages": 6,
  "total_count": 119,
  "generated_time": "2026-02-20 09:12:59"
}