{
  "newspapers": [
    {
      "title": "英伟达否认DeepSeek使用禁售Blackwell芯片传闻【AI 早报 2025-12-14】",
      "publish_date": "2025-12-14",
      "bv_id": "BV1rWmeBDEUV",
      "organize_time": "2025-12-14 08:53:43",
      "news_count": 8,
      "overview": "1. 🚀 Gemini集成Google Maps提供视觉化本地搜索\n2. 🔧 Google推出NotebookLM与Gemini集成功能\n3. 🔧 Gemini Web界面出现Gemini 3 Flash字样\n4. 🚀 SID发布SID-1检索模型技术报告\n5. 🚀 NVIDIA发布gpt-oss-120b Eagle3吞吐量优化模型\n6. 🔧 MotionEdit发布运动中心图像编辑数据集与框架\n7. 📈 英特尔拟16亿美元收购SambaNova\n8. 📈 英伟达否认DeepSeek使用禁售Blackwell芯片传闻",
      "is_voice_generated": false
    },
    {
      "title": "Google 更新 Gemini 2.5 Flash Native Audio【AI 早报 2025-12-13】",
      "publish_date": "2025-12-13",
      "bv_id": "BV1qkmSB9EJ4",
      "organize_time": "2025-12-13 09:37:53",
      "news_count": 17,
      "overview": "1. 🚀 Google更新Gemini 2.5 Flash音频模型\n2. 🔧 Claude Code新增Android支持与多项更新\n3. 🔧 OpenAI Codex CLI支持设备登录与Skills机制\n4. 🔧 Google Gemini CLI新增会话管理功能\n5. 🔧 Chrome DevTools集成AI调试与MCP支持\n6. 🔧 Kiro CLI集成代码智能与LSP支持\n7. 🚀 字节跳动开源Dolphin-v2文档解析模型\n8. 🚀 OpenAI为Sora推出三种新风格\n9. 🚀 Runway发布GWM-1通用世界模型\n10. 🚀 智谱AI上线AutoGLM-Phone智能助理框架\n11. 🔧 llama.cpp新增模型路由模式\n12. 🚀 Ai2发布Olmo 3.1模型系列\n13. 🔧 智谱开源四项视频生成核心技术\n14. 🔧 伯克利发布DS Serve高效检索框架\n15. 🚀 SCAIL发布角色动画新框架\n16. 🚀 Tinker平台正式发布并更新\n17. 🔧 Google DeepMind展示Veo机器人评估系统",
      "is_voice_generated": false
    },
    {
      "title": "重归王座！OpenAI发布GPT-5.2系列；谷歌推出Gemini Deep Research API【AI早报 2025-12-12】",
      "publish_date": "2025-12-12",
      "bv_id": "BV1Sem5BGEnK",
      "organize_time": "2025-12-12 09:06:43",
      "news_count": 20,
      "overview": "1. 🚀 OpenAI发布GPT-5.2系列模型\n2. 📈 迪士尼与OpenAI达成十年协议\n3. 🚀 谷歌发布Gemini Deep Research API\n4. 🚀 Cursor推出Browser可视化编辑器\n5. 🚀 Augment Code发布AI代码审查工具\n6. 🔧 谷歌推出Disco与GenTabs实验项目\n7. 🚀 Google NotebookLM加入AI Ultra计划\n8. 🚀 Qwen Chat推出Learn Mode学习功能\n9. 🚀 Shisa AI发布V2.1日语模型\n10. 🔧 Sora 2 API发布增量模型更新\n11. 🚀 谷歌在印度推出Google AI Plus订阅\n12. 🔧 智谱将发布支持Claude Code思考的新模型\n13. 🔧 Google DeepMind研究Agent系统扩展\n14. 🔧 谷歌通过MCP开放AI模型基础设施\n15. 📈 雅虎等成立RSL联盟推出RSL 1.0\n16. 📈 ElevenLabs与Meta合作提供AI音频技术\n17. 📈 Google DeepMind加强与英国政府合作\n18. 📈 xAI与萨尔瓦多启动全国性AI教育项目\n19. 📈 MiniMax和智谱计划香港IPO\n20. 🔧 腾讯会员模型名称简化为Tencent t",
      "is_voice_generated": false
    },
    {
      "title": "Adobe将Photoshop等功能集成至ChatGPT【AI 早报 2025-12-11】",
      "publish_date": "2025-12-11",
      "bv_id": "BV1vmmKBhEDp",
      "organize_time": "2025-12-11 09:05:36",
      "news_count": 23,
      "overview": "1. 🚀 Adobe集成Photoshop至ChatGPT\n2. 🔧 智谱AI开源GLM-TTS语音模型\n3. 🔧 Google更新Gemini 2.5 TTS模型\n4. 🚀 Qwen发布Qwen3-Omni-Flash全模态模型\n5. 🔧 Claude Code升级Agent SDK\n6. 🔧 VS Code Agent体验重大升级\n7. 🔧 Cursor 2.2引入Debug Mode\n8. 🔧 Google Jules新增主动编程功能\n9. 🚀 智谱AI发布AI输入法\n10. 🔧 Google Pomelli引入动画功能\n11. 🔧 阿里开源Wan-Move视频模型\n12. 🚀 Motif发布12.7B推理模型\n13. 🔧 南贝格开源Nanbeige4-3B模型\n14. 🔧 thu-pacman发布PCMind-2.1模型\n15. 🚀 Arcee AI发布Trinity Mini模型\n16. 🔧 StarCloud卫星训练AI模型成功\n17. 🔧 Onsros AI发布新T内核\n18. 🔧 Google推出Acts事实准确性基准\n19. 📈 Google推广Preferred Sources功能\n20. 📈 OpenAI加强网络安全准备\n21. 📈 DeepMind训练下一代AI模型\n22. 🔧 NVIDIA开发AI芯片定位技术\n23. 📈 亚马逊投资印度350亿美元",
      "is_voice_generated": false
    },
    {
      "title": "Gemini 3 官方免费资格最后上车机会！本周五通道关闭！OpenAI Whisper 被拉下神坛？智谱发布 1.5B “小钢炮”！【AI早报 12月10日】",
      "publish_date": "2025-12-10",
      "bv_id": "BV1zVmxBxEmE",
      "organize_time": "2025-12-10 09:19:25",
      "news_count": 25,
      "overview": "1. 🚀 Mistral AI发布Devstral 2与Vibe CLI\n2. 🚀 智谱发布GLM-ASR-Nano-2512语音识别模型\n3. 🚀 智谱开源AutoGLM手机智能助理框架\n4. 📈 Linux基金会成立Agentic AI基金会\n5. 🚀 Gemini CLI候补名单本周五关闭\n6. 🔧 Google Stitch推出Predictive Heatmaps功能\n7. 🚀 Augment Code发布Context Engine SDK\n8. 🔧 Qwen Code发布新版本更新说明\n9. 🚀 DiffSynth-Studio发布Qwen-Image-i2L模型\n10. 🚀 Cognitive-Lab发布NetraEmbed多模态嵌入模型\n11. 🚀 NousResearch开源Nomos-1数学求解模型\n12. 🚀 One-to-All Animation发布角色动画模型\n13. 🚀 inclusionAI发布TwinFlow生成框架\n14. 🚀 stepfun-ai开源PaCoRe推理框架\n15. 🔧 Cerebras发布DeepSeek-V3.2压缩模型\n16. 🔧 Qwen团队介绍SAPO强化学习方法\n17. 📈 OpenAI发布首批认证课程\n18. 🔧 Google测试Veo 3.1模板功能\n19. 📈 OpenAI新图像模型疑似现身\n20. 📈 Meta Avocado模型延期至2026年\n21. 📈 阿里成立千问C端事业群\n22. 📈 印度拟推AI训练版权新规\n23. 📈 美国战争部推出GenAi.mil军事AI平台\n24. 📈 欧盟调查Google涉嫌反竞争行为\n25. 📈 fal完成1.4亿美元D轮融资",
      "is_voice_generated": true
    },
    {
      "title": "疯了！美国突然卖H200给中国，GPU价要雪崩？！国产大模型连夜狂飙；智谱甩出多模态核弹，免费Flash版直接薅！【AI早报 12月9日】",
      "publish_date": "2025-12-09",
      "bv_id": "BV1kf22BHEiP",
      "organize_time": "2025-12-09 09:24:50",
      "news_count": 22,
      "overview": "1. 📈 美国允许英伟达H200芯片出口中国\n2. 🚀 智谱开源GLM-4.6V多模态大模型\n3. 🚀 Jina AI发布Jina-VLM-2.4B视觉语言模型\n4. 🚀 OpenAI与Instacart合作推出ChatGPT购物功能\n5. 🔧 Google Doppl新增可购物发现信息流\n6. 🔧 NotebookLM支持上传DocX文件\n7. 🔧 Google Labs更新Mixboard支持多文件类型\n8. 🔧 Google Stitch推出Redesign Agent代码生成功能\n9. 🔧 GitHub Copilot推出模型选择器功能\n10. 🚀 Firecrawl发布AI网络监控平台OpenScouts\n11. 🔧 Hugging Face推出LLM微调技能系统\n12. 🔧 Google与联发科合作推出LiteRT NeuroPilot加速器\n13. 🔧 Tiny-A2D开源方案实现语言模型扩散化\n14. 🔧 MindLab发布低秩适配器强化学习系统\n15. 🚀 Hugging Face上线优达RC多语言语音数据集\n16. 📈 OpenAI发布2025年企业AI状态报告\n17. 📈 Google公布Android XR生态路线图\n18. 📈 OpenAI采购全球40% DRAM供应\n19. 📈 Google计划2026年在聊天机器人中引入广告\n20. 📈 康伦以110亿美元被IBM收购\n21. 📈 Uncommon AI完成4.75亿美元种子轮融资\n22. 📈 AI合成研究创企Aaru完成A轮融资",
      "is_voice_generated": false
    },
    {
      "title": "Gemini 3 Flash 已上线 LM Arena？或将在2025年内发布！【AI 早报 2025-12-08】",
      "publish_date": "2025-12-08",
      "bv_id": "BV1a22zB7Eju",
      "organize_time": "2025-12-08 08:38:40",
      "news_count": 9,
      "overview": "1. 🚀 Gemini 3 Flash 或已上线 LM Arena\n2. 🚀 NewBieAi-lab 发布动漫图像生成模型\n3. 🚀 ServiceNow 发布多模态推理模型 Apriel-1.6-15B-Thinker\n4. 🚀 LLM360 发布完全开放模型 K2-V2-Instruct\n5. 🔧 ImageCritic 发布图像后编辑框架\n6. 🔧 Grok 深度集成 Tesla 并预告 4.20 版本\n7. 🚀 Stack Overflow 发布 AI Assist 工具\n8. 📈 Google 扩大 TPU 供应与数据中心部署\n9. 📈 d-Matrix 完成 2.75 亿美元 C 轮融资",
      "is_voice_generated": false
    },
    {
      "title": "白嫖党崩溃！Google 突然削减 Gemini API 免费配额【AI 早报 2025-12-07】",
      "publish_date": "2025-12-07",
      "bv_id": "BV1vL2fBgE3G",
      "organize_time": "2025-12-07 08:53:27",
      "news_count": 9,
      "overview": "1. 🔧 Google削减Gemini API免费配额\n2. 🚀 Essential AI发布Rnj-1开源模型\n3. 🚀 OpenBMB发布VoxCPM1.5无分词器TTS系统\n4. 📈 OPPO AI揭示Agent系统编造缺陷\n5. 📈 LeCun创立AMI聚焦非生成世界模型\n6. 🚀 Live Avatar发布流式音驱Agent框架\n7. 🚀 Microsoft发布FoundryLocal本地AI推理框架\n8. 🔧 Poetiq在ARC-AGI基准确立新SOTA\n9. 🔧 Google发布Titans与MIRAS记忆框架",
      "is_voice_generated": false
    },
    {
      "title": "GPT-5.2即将来袭？Altman被逼到\"code red\"！谷歌Gemini 3刚封神就要被秒？【AI早报 12月6日】",
      "publish_date": "2025-12-06",
      "bv_id": "BV1iw2nBvEWB",
      "organize_time": "2025-12-06 09:07:38",
      "news_count": 19,
      "overview": "1. 🚀 OpenAI将发布GPT-5.2应对谷歌Gemini 3\n2. 🚀 腾讯发布混元HY 2.0大模型\n3. 🔧 美团开源LongCat-Image双语视觉模型\n4. 🔧 Qwen发布Qwen3-TTS语音合成模型升级\n5. 📈 React关键RCE漏洞影响Next.js及Dify\n6. 🚀 火山引擎发布豆包语音识别模型2.0\n7. 🔧 Google发布Gemini 3 Pro Vision多模态基准\n8. 📈 Google调整Antigravity平台rate limits政策\n9. 🔧 腾讯发布HunyuanVideo 1.5步数蒸馏模型\n10. 🔧 NotebookLM发布移动应用重大更新\n11. 📈 xAI宣布Live Search API移除并推荐Agent Tools\n12. 📈 yupp.ai发布SVG榜单Gemini 3 Pro登顶\n13. 📈 OpenAI在澳建550MW GPU超级集群\n14. 🚀 火山方舟上线DeepSeek-V3.2模型\n15. 📈 Google启动Gemini 3 Vibe Code黑客松\n16. 🔧 JetBrains IDEs集成Agent Client Protocol\n17. 📈 xAI实验性Grok 4.20模型夺冠Alpha Arena\n18. 🔧 Google开发Gemini网页实时翻译功能\n19. 📈 Meta收购Limitless并签署AI新闻协议",
      "is_voice_generated": false
    },
    {
      "title": "宇宙最强AI炸裂上线，OpenAI哭了，Google 上线 Gemini 3 Deep Think【AI早报 2025-12-05】",
      "publish_date": "2025-12-05",
      "bv_id": "BV1c72GBpEQU",
      "organize_time": "2025-12-07 11:08:00",
      "news_count": 19,
      "overview": "1. 🚀 Google上线Gemini 3 Deep Think模式\n2. 🚀 OpenAI开放GPT-5.1-Codex-Max API访问\n3. 🔧 Cursor优化Agent支持Codex模型并限免\n4. 🔧 NotebookLM iOS新增图表与幻灯片功能\n5. 🚀 Anthropic发布AI访谈工具并公开数据集\n6. 🔧 Haiku 4.5模型推出结构化输出beta功能\n7. 🚀 可灵AI上线数字人2.0功能\n8. 🔧 千问APP发布办公场景功能更新\n9. 🚀 Microsoft发布VibeVoice-Realtime-0.5B模型\n10. 🔧 Hugging Face发布LLM评测指南v2\n11. 📈 Claude账单将按信用卡地址收税\n12. 🚀 Tavily发布Deep Research达SOTA水平\n13. 🔧 Exa发布NeurIPS论文语义检索功能\n14. 🔧 StepFun发布Open Vision Reasoner论文\n15. 📈 Mistral Large 3登顶开源编码模型榜首\n16. 📈 Meta面临欧盟反垄断调查并考虑采购TPU\n17. 📈 谷歌云携手Replit推进企业级Vibe Coding\n18. 📈 OpenRouter发布AI使用状态报告\n19. 📈 Anthropic CEO：缩放定律直通AGI",
      "is_voice_generated": true
    },
    {
      "title": "字节跳动发布图像模型Seedream 4.5【AI 早报 2025-12-04】",
      "publish_date": "2025-12-04",
      "bv_id": "BV1sy2hB2EST",
      "organize_time": "2025-12-04 09:05:31",
      "news_count": 17,
      "overview": "1. 🚀 字节跳动发布Seedream 4.5图像模型\n2. 🚀 可灵AI 2.6模型实现音画同步生成\n3. 🚀 快手StreamLake发布CyberCut AI工具\n4. 🔧 Kiro发布Powers实现Agent动态加载\n5. 🔧 Gemini CLI v0.19.0版本功能更新\n6. 🚀 Claude Code Opus 4.5向Pro用户开放\n7. 🔧 OpenAI Codex新增Skills试验性支持\n8. 🚀 ManusAI推出Nano Banana Pro Slides工具\n9. 🔧 OpenAI发布Confessions方法\n10. 🔧 Perplexity发布BrowseSafe Agent防御模型\n11. 🚀 Nous Research发布Hermes 4.3模型\n12. 🔧 字节跳动Seed发布GR-RL模型\n13. 🚀 StepFun开源Open-Reasoner-Zero模型\n14. 🚀 Meta发布TUNA统一视觉表示模型\n15. 🚀 OpenAI四款新代号模型上线Designarena\n16. 🚀 Google Workspace Studio将推Agent工具\n17. 🔧 Google NotebookLM开发模型选择器",
      "is_voice_generated": false
    },
    {
      "title": "OpenAI拉响“红色警报”！GPT-5.2代号Garlic紧急立项，再慢就要被谷歌团灭？【AI 早报 2025-12-03】",
      "publish_date": "2025-12-03",
      "bv_id": "BV1V9SaBgEos",
      "organize_time": "2025-12-07 11:22:24",
      "news_count": 8,
      "overview": "1. 📈 OpenAI紧急开发Garlic模型应对谷歌\n2. 🚀 Mistral AI发布Mistral 3模型家族\n3. 🚀 亚马逊发布Nova 2模型系列及服务\n4. 📈 Anthropic收购Bun并开源\n5. 🚀 苹果发布CLaRa-7B-Instruct和STARFlow-V\n6. 🔧 谷歌DeepMind发布DiscoRL强化学习算法\n7. 🔧 英伟达发布TiDAR AI解码方法\n8. 🚀 商汤开源原生多模态架构NEO",
      "is_voice_generated": false
    },
    {
      "title": "DeepSeek 发布 V3.2 系列模型【AI 早报 2025-12-02】",
      "publish_date": "2025-12-02",
      "bv_id": "BV1xgSHBfEPW",
      "organize_time": "2025-12-07 11:09:25",
      "news_count": 28,
      "overview": "1. 🚀 DeepSeek发布V3.2系列模型\n2. 🚀 字节跳动发布豆包手机助手技术预览版\n3. 🚀 Runway发布Gen-4.5视频模型\n4. 🚀 Kling AI发布O1视频模型\n5. 🚀 拍我AI发布PixVerse V5.5视频模型\n6. 🚀 阿里国际发布Ovis-Image-7B文声图模型\n7. 🔧 Vidu发布Q2生图模型并升级功能\n8. 🚀 Pruna AI发布P-Image与P-Image-Edit模型\n9. 🚀 Kilo Code上线免费Stealth模型Spectre\n10. 🔧 Cherry Studio发布v1.7.1版本\n11. 🚀 Arcee AI发布Trinity开源MoE模型\n12. 🔧 OpenAI启动对齐研究博客\n13. 📈 Anthropic发布智能合约漏洞利用研究\n14. 🔧 Hugging Face发布transformers v5\n15. 🔧 OpenBMB开源InfLLM-V2项目资源\n16. 🔧 vLLM发布vLLM-Omni多模态推理框架\n17. 🚀 OpenAGI发布Lux计算机使用模型\n18. 🔧 OPPO发布O-Mem全项记忆框架\n19. 🔧 复旦与美团提出R-HORIZON评测框架\n20. 🔧 Unsloth实现53万上下文窗口微调\n21. 📈 Artificial Analysis发布开放性指数\n22. 🔧 WebGPU获主流浏览器正式支持\n23. 📈 Anthropic证实Claude训练文档真实性\n24. 📈 字节跳动领先中国AI模型即服务市场\n25. 🚀 Mistral AI将发布Ministral 3与Large 3模型\n26. 📈 LTX-2开源发布推迟至2026年1月\n27. 📈 Thrive Holdings与OpenAI达成战略合作\n28. 📈 Accenture与OpenAI加速企业AI应用",
      "is_voice_generated": true
    },
    {
      "title": "阶跃AI开源GELab-Zero【AI 早报 2025-12-01】",
      "publish_date": "2025-12-01",
      "bv_id": "BV1rVS6BzEcB",
      "organize_time": "2025-12-01 08:54:51",
      "news_count": 3,
      "overview": "1. 🚀 阶跃AI开源GELab-Zero GUI智能体堆栈\n2. 🚀 字节跳动发布Vidi2多模态模型\n3. 🔧 豆包APP上线记忆与积分功能",
      "is_voice_generated": false
    },
    {
      "title": "ChatGPT安卓测试版出现广告相关代码【AI 早报 2025-11-30】",
      "publish_date": "2025-11-30",
      "bv_id": "BV1SRSNB9ETt",
      "organize_time": "2025-11-30 08:39:17",
      "news_count": 6,
      "overview": "1. 📈 ChatGPT安卓版现广告代码\n2. 🚀 NVIDIA发布Orchestrator-8B模型\n3. 🔧 AMD vLLM支持Ryzen AI Max\n4. 🔧 llama.cpp兼容Anthropic API\n5. 📈 Whisper Thunder登顶AA T2V榜\n6. 📈 维基百科禁用AI生成条目",
      "is_voice_generated": false
    },
    {
      "title": "美团 LongCat 上线 AI 生图功能【AI 早报 2025-11-29】",
      "publish_date": "2025-11-29",
      "bv_id": "BV1DqUoBPEkq",
      "organize_time": "2025-11-29 08:53:34",
      "news_count": 8,
      "overview": "1. 🚀 LongCat上线AI生图功能\n2. 🔧 腾讯混元发布3D Studio 1.1及PolyGen 1.5\n3. 🚀 Kimi上线Agentic Slides并开发记忆功能\n4. 🚀 昆仑万维发布Mureka V7.6和O2音乐模型\n5. 🔧 快手开源Keye-VL-671B-A37B多模态模型\n6. 🚀 Grok Imagine推出文本到视频功能\n7. 📈 Kilo AI发布三大编码模型基准测试\n8. 📈 北京推进太空数据中心建设",
      "is_voice_generated": false
    },
    {
      "title": "DeepSeek开源DeepSeekMath-V2数学推理模型【AI 早报 2025-11-28】",
      "publish_date": "2025-11-28",
      "bv_id": "BV1QCSGBLEjP",
      "organize_time": "2025-11-28 08:52:47",
      "news_count": 14,
      "overview": "1. 🚀 DeepSeek开源数学推理模型DeepSeekMath-V2\n2. 🚀 阶跃星辰发布音频推理模型Step-Audio-R1\n3. 🚀 Prime Intellect开源INTELLECT-3模型\n4. 🔧 Google Antigravity提高Pro/Ultra用户速率限制\n5. 📈 智谱AI发布GLM Coding Plan黑五特惠\n6. 📈 Adobe推出网页版Photoshop限时免费计划\n7. 🔧 Manus上线自定义域名功能\n8. 🔧 Moondream发布分割功能\n9. 🔧 X平台使用Grok排序Following时间线\n10. 🔧 阿里巴巴发布Qwen3-VL技术报告\n11. 📈 OpenAI终止使用Mixpanel并通报安全事件\n12. 📈 Suno与华纳音乐集团达成战略合作\n13. 📈 中国开源模型下载量首超美国\n14. 📈 无问芯穹完成近5亿元A+轮融资",
      "is_voice_generated": false
    },
    {
      "title": "阿里巴巴通义实验室发布Z-Image图像生成模型【AI 早报 2025-11-27】",
      "publish_date": "2025-11-27",
      "bv_id": "BV1Z2UqBxEhM",
      "organize_time": "2025-11-27 09:06:59",
      "news_count": 12,
      "overview": "1. 🚀 阿里通义发布Z-Image图像生成模型\n2. 🚀 Google Gemini推出互动图像学习功能\n3. 📈 OpenAI将推Apps目录并预期2.2亿付费用户\n4. 🚀 Perplexity上线个性化记忆与语言导师功能\n5. 🚀 智谱AI发布小凹语音输入法\n6. 🚀 腾讯混元3D引擎上线国际站及API\n7. 🚀 AllenAI发布Deep Research Tulu Agent\n8. 🔧 Anthropic发布长效Agent工作流程方案\n9. 🔧 Gemini CLI发布v0.17.0扩展新功能\n10. 🔧 GitHub Mobile支持外部应用启动Copilot Agent\n11. 🚀 Adobe发布Project Graph节点式创作系统\n12. 📈 英伟达重申AI基础设施领先并计划生态投资",
      "is_voice_generated": false
    },
    {
      "title": "Black Forest Labs 发布 FLUX.2 系列模型【AI 早报 2025-11-26】",
      "publish_date": "2025-11-26",
      "bv_id": "BV1rNU8B3EkQ",
      "organize_time": "2025-11-26 09:21:03",
      "news_count": 22,
      "overview": "1. 🚀 Black Forest Labs发布FLUX.2模型\n2. 🔧 OpenAI集成ChatGPT语音模式至聊天界面\n3. 🚀 inclusionAI发布LLaDA2.0系列模型\n4. 🚀 Nari Labs发布流式对话TTS模型Dia2\n5. 🚀 腾讯混元开源HunyuanOCR专家模型\n6. 🔧 OpenAI改进Sora 2减少视频闪烁问题\n7. 🔧 Google推出Gemini交互式图像功能\n8. 🚀 Google发布agentic calling功能让AI致电商家\n9. 🚀 Claude发布桌面版Code及Plan Mode升级\n10. 🔧 GitHub发布Copilot自定义Agent编写指南\n11. 🚀 TRAE中国版上线SOLO模式\n12. 🔧 Kiro推出Multi-root workspaces功能\n13. 📈 MiniMax Coding Plan推出黑五促销活动\n14. 📈 Anthropic发布AI任务效率与诚实度研究报告\n15. 🚀 Rama Index推出Rama She的API\n16. 🔧 Telm发布Special SSR框架\n17. 🔧 Ons Labs推出FP8强化学习功能\n18. 📈 OpenAI发布AI评估框架指南\n19. 📈 马斯克计划让Grok 5挑战人类英雄联盟团队\n20. 📈 谷歌开发Luminary OS新操作系统\n21. 📈 陶哲轩使用AI助手解决数学问题\n22. 📈 美国启动创世使命AI科研计划",
      "is_voice_generated": false
    },
    {
      "title": "Anthropic 发布 Claude Opus 4.5 模型【AI 早报 2025-11-25】",
      "publish_date": "2025-11-25",
      "bv_id": "BV1UxUUBzEG9",
      "organize_time": "2025-11-25 09:19:50",
      "news_count": 15,
      "overview": "1. 🚀 Anthropic发布Claude Opus 4.5模型\n2. 🔧 Anthropic推出高级工具使用功能\n3. 🚀 OpenAI推出ChatGPT购物研究功能\n4. 🔧 OpenAI Sora推出Sora styles功能\n5. 🚀 Google Gemini 3 CLI全付费计划开放\n6. 🔧 龙猫LongCat App上线视频与深度思考功能\n7. 🚀 Andrew Ng发布Agentic Reviewer工具\n8. 🚀 Zyphra联合AMD/IBM发布ZAYA1 MoE模型\n9. 🚀 Microsoft发布Fara-7B Agentic模型\n10. 🔧 谷歌安卓Chrome Canary集成AI生图\n11. 🚀 Openrouter上线Bert-Nebulon Alpha模型\n12. 🔧 Windsurf测试Penguin Alpha模型\n13. 📈 Ive与Altman确认AI硬件原型机\n14. 📈 Google商谈AI芯片进驻客户数据中心\n15. 🔧 Google开发NotebookLM导入Gemini选项",
      "is_voice_generated": false
    }
  ],
  "page": 5,
  "total_pages": 8,
  "total_count": 141,
  "generated_time": "2026-03-22 08:50:21"
}